(export (version D)
  (design
    (source /home/riton/projects/led-stairs-lighting/kicad/stairs-dimmer.sch)
    (date "jeu. 20 févr. 2020 02:54:04 CET")
    (tool "Eeschema 4.0.2+dfsg1-stable")
    (sheet (number 1) (name /) (tstamps /)
      (title_block
        (title)
        (company)
        (rev)
        (date)
        (source stairs-dimmer.sch)
        (comment (number 1) (value ""))
        (comment (number 2) (value ""))
        (comment (number 3) (value ""))
        (comment (number 4) (value "")))))
  (components
    (comp (ref R17)
      (value 220)
      (footprint Resistors_ThroughHole:Resistor_Horizontal_RM10mm)
      (libsource (lib device) (part R))
      (sheetpath (names /) (tstamps /))
      (tstamp 5C7E9F71))
    (comp (ref R32)
      (value 100K)
      (footprint Resistors_ThroughHole:Resistor_Horizontal_RM10mm)
      (libsource (lib device) (part R))
      (sheetpath (names /) (tstamps /))
      (tstamp 5C7E9FE2))
    (comp (ref P18)
      (value LED1)
      (footprint myConnectors:NINIGI_NS25-W2K)
      (libsource (lib conn) (part CONN_01X02))
      (sheetpath (names /) (tstamps /))
      (tstamp 5C7EA063))
    (comp (ref R16)
      (value 220)
      (footprint Resistors_ThroughHole:Resistor_Horizontal_RM10mm)
      (libsource (lib device) (part R))
      (sheetpath (names /) (tstamps /))
      (tstamp 5C7EA50A))
    (comp (ref R31)
      (value 100K)
      (footprint Resistors_ThroughHole:Resistor_Horizontal_RM10mm)
      (libsource (lib device) (part R))
      (sheetpath (names /) (tstamps /))
      (tstamp 5C7EA511))
    (comp (ref P17)
      (value LED2)
      (footprint myConnectors:NINIGI_NS25-W2K)
      (libsource (lib conn) (part CONN_01X02))
      (sheetpath (names /) (tstamps /))
      (tstamp 5C7EA527))
    (comp (ref R15)
      (value 220)
      (footprint Resistors_ThroughHole:Resistor_Horizontal_RM10mm)
      (libsource (lib device) (part R))
      (sheetpath (names /) (tstamps /))
      (tstamp 5C7EA672))
    (comp (ref R30)
      (value 100K)
      (footprint Resistors_ThroughHole:Resistor_Horizontal_RM10mm)
      (libsource (lib device) (part R))
      (sheetpath (names /) (tstamps /))
      (tstamp 5C7EA679))
    (comp (ref P16)
      (value LED3)
      (footprint myConnectors:NINIGI_NS25-W2K)
      (libsource (lib conn) (part CONN_01X02))
      (sheetpath (names /) (tstamps /))
      (tstamp 5C7EA68F))
    (comp (ref R14)
      (value 220)
      (footprint Resistors_ThroughHole:Resistor_Horizontal_RM10mm)
      (libsource (lib device) (part R))
      (sheetpath (names /) (tstamps /))
      (tstamp 5C7EA6A5))
    (comp (ref R29)
      (value 100K)
      (footprint Resistors_ThroughHole:Resistor_Horizontal_RM10mm)
      (libsource (lib device) (part R))
      (sheetpath (names /) (tstamps /))
      (tstamp 5C7EA6AC))
    (comp (ref P15)
      (value LED4)
      (footprint myConnectors:NINIGI_NS25-W2K)
      (libsource (lib conn) (part CONN_01X02))
      (sheetpath (names /) (tstamps /))
      (tstamp 5C7EA6C2))
    (comp (ref R13)
      (value 220)
      (footprint Resistors_ThroughHole:Resistor_Horizontal_RM10mm)
      (libsource (lib device) (part R))
      (sheetpath (names /) (tstamps /))
      (tstamp 5C7EAE87))
    (comp (ref R28)
      (value 100K)
      (footprint Resistors_ThroughHole:Resistor_Horizontal_RM10mm)
      (libsource (lib device) (part R))
      (sheetpath (names /) (tstamps /))
      (tstamp 5C7EAE8E))
    (comp (ref P14)
      (value LED5)
      (footprint myConnectors:NINIGI_NS25-W2K)
      (libsource (lib conn) (part CONN_01X02))
      (sheetpath (names /) (tstamps /))
      (tstamp 5C7EAEA4))
    (comp (ref R12)
      (value 220)
      (footprint Resistors_ThroughHole:Resistor_Horizontal_RM10mm)
      (libsource (lib device) (part R))
      (sheetpath (names /) (tstamps /))
      (tstamp 5C7EAEBA))
    (comp (ref R27)
      (value 100K)
      (footprint Resistors_ThroughHole:Resistor_Horizontal_RM10mm)
      (libsource (lib device) (part R))
      (sheetpath (names /) (tstamps /))
      (tstamp 5C7EAEC1))
    (comp (ref P13)
      (value LED6)
      (footprint myConnectors:NINIGI_NS25-W2K)
      (libsource (lib conn) (part CONN_01X02))
      (sheetpath (names /) (tstamps /))
      (tstamp 5C7EAED7))
    (comp (ref R11)
      (value 220)
      (footprint Resistors_ThroughHole:Resistor_Horizontal_RM10mm)
      (libsource (lib device) (part R))
      (sheetpath (names /) (tstamps /))
      (tstamp 5C7EAEED))
    (comp (ref R26)
      (value 100K)
      (footprint Resistors_ThroughHole:Resistor_Horizontal_RM10mm)
      (libsource (lib device) (part R))
      (sheetpath (names /) (tstamps /))
      (tstamp 5C7EAEF4))
    (comp (ref P12)
      (value LED7)
      (footprint myConnectors:NINIGI_NS25-W2K)
      (libsource (lib conn) (part CONN_01X02))
      (sheetpath (names /) (tstamps /))
      (tstamp 5C7EAF0A))
    (comp (ref R10)
      (value 220)
      (footprint Resistors_ThroughHole:Resistor_Horizontal_RM10mm)
      (libsource (lib device) (part R))
      (sheetpath (names /) (tstamps /))
      (tstamp 5C7EAF20))
    (comp (ref R25)
      (value 100K)
      (footprint Resistors_ThroughHole:Resistor_Horizontal_RM10mm)
      (libsource (lib device) (part R))
      (sheetpath (names /) (tstamps /))
      (tstamp 5C7EAF27))
    (comp (ref P11)
      (value LED8)
      (footprint myConnectors:NINIGI_NS25-W2K)
      (libsource (lib conn) (part CONN_01X02))
      (sheetpath (names /) (tstamps /))
      (tstamp 5C7EAF3D))
    (comp (ref R9)
      (value 220)
      (footprint Resistors_ThroughHole:Resistor_Horizontal_RM10mm)
      (libsource (lib device) (part R))
      (sheetpath (names /) (tstamps /))
      (tstamp 5C7EB6B7))
    (comp (ref R24)
      (value 100K)
      (footprint Resistors_ThroughHole:Resistor_Horizontal_RM10mm)
      (libsource (lib device) (part R))
      (sheetpath (names /) (tstamps /))
      (tstamp 5C7EB6BE))
    (comp (ref P10)
      (value LED9)
      (footprint myConnectors:NINIGI_NS25-W2K)
      (libsource (lib conn) (part CONN_01X02))
      (sheetpath (names /) (tstamps /))
      (tstamp 5C7EB6D4))
    (comp (ref R8)
      (value 220)
      (footprint Resistors_ThroughHole:Resistor_Horizontal_RM10mm)
      (libsource (lib device) (part R))
      (sheetpath (names /) (tstamps /))
      (tstamp 5C7EB6EA))
    (comp (ref R23)
      (value 100K)
      (footprint Resistors_ThroughHole:Resistor_Horizontal_RM10mm)
      (libsource (lib device) (part R))
      (sheetpath (names /) (tstamps /))
      (tstamp 5C7EB6F1))
    (comp (ref P9)
      (value LED10)
      (footprint myConnectors:NINIGI_NS25-W2K)
      (libsource (lib conn) (part CONN_01X02))
      (sheetpath (names /) (tstamps /))
      (tstamp 5C7EB707))
    (comp (ref R7)
      (value 220)
      (footprint Resistors_ThroughHole:Resistor_Horizontal_RM10mm)
      (libsource (lib device) (part R))
      (sheetpath (names /) (tstamps /))
      (tstamp 5C7EB71D))
    (comp (ref R22)
      (value 100K)
      (footprint Resistors_ThroughHole:Resistor_Horizontal_RM10mm)
      (libsource (lib device) (part R))
      (sheetpath (names /) (tstamps /))
      (tstamp 5C7EB724))
    (comp (ref P8)
      (value LED11)
      (footprint myConnectors:NINIGI_NS25-W2K)
      (libsource (lib conn) (part CONN_01X02))
      (sheetpath (names /) (tstamps /))
      (tstamp 5C7EB73A))
    (comp (ref R6)
      (value 220)
      (footprint Resistors_ThroughHole:Resistor_Horizontal_RM10mm)
      (libsource (lib device) (part R))
      (sheetpath (names /) (tstamps /))
      (tstamp 5C7EB750))
    (comp (ref R21)
      (value 100K)
      (footprint Resistors_ThroughHole:Resistor_Horizontal_RM10mm)
      (libsource (lib device) (part R))
      (sheetpath (names /) (tstamps /))
      (tstamp 5C7EB757))
    (comp (ref P7)
      (value LED12)
      (footprint myConnectors:NINIGI_NS25-W2K)
      (libsource (lib conn) (part CONN_01X02))
      (sheetpath (names /) (tstamps /))
      (tstamp 5C7EB76D))
    (comp (ref R5)
      (value 220)
      (footprint Resistors_ThroughHole:Resistor_Horizontal_RM10mm)
      (libsource (lib device) (part R))
      (sheetpath (names /) (tstamps /))
      (tstamp 5C7EB783))
    (comp (ref R20)
      (value 100K)
      (footprint Resistors_ThroughHole:Resistor_Horizontal_RM10mm)
      (libsource (lib device) (part R))
      (sheetpath (names /) (tstamps /))
      (tstamp 5C7EB78A))
    (comp (ref P6)
      (value LED13)
      (footprint myConnectors:NINIGI_NS25-W2K)
      (libsource (lib conn) (part CONN_01X02))
      (sheetpath (names /) (tstamps /))
      (tstamp 5C7EDC0D))
    (comp (ref R4)
      (value 220)
      (footprint Resistors_ThroughHole:Resistor_Horizontal_RM10mm)
      (libsource (lib device) (part R))
      (sheetpath (names /) (tstamps /))
      (tstamp 5C7EDC23))
    (comp (ref R19)
      (value 100K)
      (footprint Resistors_ThroughHole:Resistor_Horizontal_RM10mm)
      (libsource (lib device) (part R))
      (sheetpath (names /) (tstamps /))
      (tstamp 5C7EDC2B))
    (comp (ref P5)
      (value LED14)
      (footprint myConnectors:NINIGI_NS25-W2K)
      (libsource (lib conn) (part CONN_01X02))
      (sheetpath (names /) (tstamps /))
      (tstamp 5C7EDC41))
    (comp (ref R3)
      (value 220)
      (footprint Resistors_ThroughHole:Resistor_Horizontal_RM10mm)
      (libsource (lib device) (part R))
      (sheetpath (names /) (tstamps /))
      (tstamp 5C7EDC57))
    (comp (ref R18)
      (value 100K)
      (footprint Resistors_ThroughHole:Resistor_Horizontal_RM10mm)
      (libsource (lib device) (part R))
      (sheetpath (names /) (tstamps /))
      (tstamp 5C7EDC5F))
    (comp (ref P4)
      (value LED15)
      (footprint myConnectors:NINIGI_NS25-W2K)
      (libsource (lib conn) (part CONN_01X02))
      (sheetpath (names /) (tstamps /))
      (tstamp 5C7EDC75))
    (comp (ref P1)
      (value PIR-UP)
      (footprint myConnectors:NINIGI_NS25-W3K)
      (libsource (lib conn) (part CONN_01X03))
      (sheetpath (names /) (tstamps /))
      (tstamp 5C7F240A))
    (comp (ref P2)
      (value PIR-DOWN)
      (footprint myConnectors:NINIGI_NS25-W3K)
      (libsource (lib conn) (part CONN_01X03))
      (sheetpath (names /) (tstamps /))
      (tstamp 5C7F26D6))
    (comp (ref Q15)
      (value IRLD024)
      (footprint myTransistors:IRLD024)
      (libsource (lib transistors) (part IRF540N))
      (sheetpath (names /) (tstamps /))
      (tstamp 5C802741))
    (comp (ref Q14)
      (value IRLD024)
      (footprint myTransistors:IRLD024)
      (libsource (lib transistors) (part IRF540N))
      (sheetpath (names /) (tstamps /))
      (tstamp 5C802B64))
    (comp (ref Q13)
      (value IRLD024)
      (footprint myTransistors:IRLD024)
      (libsource (lib transistors) (part IRF540N))
      (sheetpath (names /) (tstamps /))
      (tstamp 5C802C3B))
    (comp (ref Q12)
      (value IRLD024)
      (footprint myTransistors:IRLD024)
      (libsource (lib transistors) (part IRF540N))
      (sheetpath (names /) (tstamps /))
      (tstamp 5C802ED5))
    (comp (ref Q11)
      (value IRLD024)
      (footprint myTransistors:IRLD024)
      (libsource (lib transistors) (part IRF540N))
      (sheetpath (names /) (tstamps /))
      (tstamp 5C802FB2))
    (comp (ref Q10)
      (value IRLD024)
      (footprint myTransistors:IRLD024)
      (libsource (lib transistors) (part IRF540N))
      (sheetpath (names /) (tstamps /))
      (tstamp 5C80322C))
    (comp (ref Q9)
      (value IRLD024)
      (footprint myTransistors:IRLD024)
      (libsource (lib transistors) (part IRF540N))
      (sheetpath (names /) (tstamps /))
      (tstamp 5C80330F))
    (comp (ref Q8)
      (value IRLD024)
      (footprint myTransistors:IRLD024)
      (libsource (lib transistors) (part IRF540N))
      (sheetpath (names /) (tstamps /))
      (tstamp 5C80354D))
    (comp (ref Q7)
      (value IRLD024)
      (footprint myTransistors:IRLD024)
      (libsource (lib transistors) (part IRF540N))
      (sheetpath (names /) (tstamps /))
      (tstamp 5C80363A))
    (comp (ref Q6)
      (value IRLD024)
      (footprint myTransistors:IRLD024)
      (libsource (lib transistors) (part IRF540N))
      (sheetpath (names /) (tstamps /))
      (tstamp 5C803726))
    (comp (ref Q5)
      (value IRLD024)
      (footprint myTransistors:IRLD024)
      (libsource (lib transistors) (part IRF540N))
      (sheetpath (names /) (tstamps /))
      (tstamp 5C803911))
    (comp (ref Q4)
      (value IRLD024)
      (footprint myTransistors:IRLD024)
      (libsource (lib transistors) (part IRF540N))
      (sheetpath (names /) (tstamps /))
      (tstamp 5C803A03))
    (comp (ref Q3)
      (value IRLD024)
      (footprint myTransistors:IRLD024)
      (libsource (lib transistors) (part IRF540N))
      (sheetpath (names /) (tstamps /))
      (tstamp 5C803AFC))
    (comp (ref Q2)
      (value IRLD024)
      (footprint myTransistors:IRLD024)
      (libsource (lib transistors) (part IRF540N))
      (sheetpath (names /) (tstamps /))
      (tstamp 5C803CFE))
    (comp (ref Q1)
      (value IRLD024)
      (footprint myTransistors:IRLD024)
      (libsource (lib transistors) (part IRF540N))
      (sheetpath (names /) (tstamps /))
      (tstamp 5C803EC2))
    (comp (ref P19)
      (value 12V)
      (footprint myConnectors:NINIGI_NS25-W2K)
      (libsource (lib conn) (part CONN_01X02))
      (sheetpath (names /) (tstamps /))
      (tstamp 5C804795))
    (comp (ref C1)
      (value 100nF)
      (footprint Capacitors_ThroughHole:C_Rect_L7_W2.5_P5)
      (libsource (lib device) (part C))
      (sheetpath (names /) (tstamps /))
      (tstamp 5C81404C))
    (comp (ref U2)
      (value NRF24L01)
      (footprint myModules:NRF24L01)
      (libsource (lib stairs-dimmer-cache) (part NRF24L01))
      (sheetpath (names /) (tstamps /))
      (tstamp 5CE2D28A))
    (comp (ref C3)
      (value 100nF)
      (footprint Capacitors_ThroughHole:C_Rect_L7_W2.5_P5)
      (libsource (lib device) (part C))
      (sheetpath (names /) (tstamps /))
      (tstamp 5CE2E37B))
    (comp (ref C4)
      (value 470nF)
      (footprint Capacitors_ThroughHole:C_Rect_L7_W2.5_P5)
      (libsource (lib device) (part C))
      (sheetpath (names /) (tstamps /))
      (tstamp 5D4087B0))
    (comp (ref U1)
      (value LF50CV)
      (footprint TO_SOT_Packages_THT:TO-220_Neutral123_Vertical_LargePads)
      (libsource (lib my-regulators) (part LF50CV))
      (sheetpath (names /) (tstamps /))
      (tstamp 5D415D29))
    (comp (ref U3)
      (value INHAOS-mega-core)
      (footprint myMicroControllers:ARDUINO-MEGA-INHAOS-CORE)
      (libsource (lib my-microcontrollers) (part INHAOS-mega-core))
      (sheetpath (names /) (tstamps /))
      (tstamp 5D41B0E6))
    (comp (ref U4)
      (value MCP1702)
      (footprint TO_SOT_Packages_THT:TO-92_Inline_Wide)
      (libsource (lib my-regulators) (part MCP1702))
      (sheetpath (names /) (tstamps /))
      (tstamp 5D4222BA))
    (comp (ref C2)
      (value 1µF)
      (footprint Capacitors_ThroughHole:C_Rect_L7_W2_P5)
      (libsource (lib device) (part C))
      (sheetpath (names /) (tstamps /))
      (tstamp 5D422E87))
    (comp (ref C5)
      (value 1µF)
      (footprint Capacitors_ThroughHole:C_Rect_L7_W2_P5)
      (libsource (lib device) (part C))
      (sheetpath (names /) (tstamps /))
      (tstamp 5D423B93)))
  (libparts
    (libpart (lib device) (part C)
      (description "Unpolarized capacitor")
      (footprints
        (fp C?)
        (fp C_????_*)
        (fp C_????)
        (fp SMD*_c)
        (fp Capacitor*))
      (fields
        (field (name Reference) C)
        (field (name Value) C))
      (pins
        (pin (num 1) (name ~) (type passive))
        (pin (num 2) (name ~) (type passive))))
    (libpart (lib conn) (part CONN_01X02)
      (description "Connector 01x02")
      (footprints
        (fp Pin_Header_Straight_1X02)
        (fp Pin_Header_Angled_1X02)
        (fp Socket_Strip_Straight_1X02)
        (fp Socket_Strip_Angled_1X02))
      (fields
        (field (name Reference) P)
        (field (name Value) CONN_01X02))
      (pins
        (pin (num 1) (name P1) (type passive))
        (pin (num 2) (name P2) (type passive))))
    (libpart (lib conn) (part CONN_01X03)
      (description "Connector 01x03")
      (footprints
        (fp Pin_Header_Straight_1X03)
        (fp Pin_Header_Angled_1X03)
        (fp Socket_Strip_Straight_1X03)
        (fp Socket_Strip_Angled_1X03))
      (fields
        (field (name Reference) P)
        (field (name Value) CONN_01X03))
      (pins
        (pin (num 1) (name P1) (type passive))
        (pin (num 2) (name P2) (type passive))
        (pin (num 3) (name P3) (type passive))))
    (libpart (lib my-microcontrollers) (part INHAOS-mega-core)
      (description "ARDUINO MEGA 2560")
      (fields
        (field (name Reference) U)
        (field (name Value) INHAOS-mega-core))
      (pins
        (pin (num 1) (name VCC) (type input))
        (pin (num 2) (name VCC) (type input))
        (pin (num 3) (name D4) (type input))
        (pin (num 4) (name "D0_(RX)") (type input))
        (pin (num 5) (name "D1_(TX)") (type input))
        (pin (num 6) (name D5) (type input))
        (pin (num 7) (name D2) (type input))
        (pin (num 8) (name D3) (type input))
        (pin (num 9) (name PE6) (type input))
        (pin (num 10) (name PE7) (type input))
        (pin (num 11) (name TX3) (type input))
        (pin (num 12) (name RX3) (type input))
        (pin (num 13) (name TX2) (type input))
        (pin (num 14) (name RX2) (type input))
        (pin (num 15) (name TX1) (type input))
        (pin (num 16) (name RX1) (type input))
        (pin (num 17) (name SDA) (type input))
        (pin (num 18) (name SCL) (type input))
        (pin (num 19) (name PH2) (type input))
        (pin (num 20) (name D6) (type input))
        (pin (num 21) (name D7) (type input))
        (pin (num 22) (name D8) (type input))
        (pin (num 23) (name D9) (type input))
        (pin (num 24) (name SS) (type input))
        (pin (num 25) (name D10) (type input))
        (pin (num 26) (name D11) (type input))
        (pin (num 27) (name D12) (type input))
        (pin (num 28) (name D13) (type input))
        (pin (num 29) (name D49) (type input))
        (pin (num 30) (name D48) (type input))
        (pin (num 31) (name D47) (type input))
        (pin (num 32) (name D46) (type input))
        (pin (num 33) (name D45) (type input))
        (pin (num 34) (name D44) (type input))
        (pin (num 35) (name D43) (type input))
        (pin (num 36) (name D42) (type input))
        (pin (num 37) (name PH7) (type input))
        (pin (num 38) (name PG3) (type input))
        (pin (num 39) (name GND) (type input))
        (pin (num 40) (name GND) (type input))
        (pin (num 41) (name AGND) (type input))
        (pin (num 42) (name AGND) (type input))
        (pin (num 43) (name A0) (type input))
        (pin (num 44) (name AREF) (type input))
        (pin (num 45) (name A2) (type input))
        (pin (num 46) (name A1) (type input))
        (pin (num 47) (name A4) (type input))
        (pin (num 48) (name A3) (type input))
        (pin (num 49) (name A6) (type input))
        (pin (num 50) (name A5) (type input))
        (pin (num 51) (name A8) (type input))
        (pin (num 52) (name A7) (type input))
        (pin (num 53) (name A10) (type input))
        (pin (num 54) (name A9) (type input))
        (pin (num 55) (name A12) (type input))
        (pin (num 56) (name A11) (type input))
        (pin (num 57) (name A14) (type input))
        (pin (num 58) (name A13) (type input))
        (pin (num 59) (name PJ2) (type input))
        (pin (num 60) (name A15) (type input))
        (pin (num 61) (name PJ4) (type input))
        (pin (num 62) (name PJ3) (type input))
        (pin (num 63) (name PJ6) (type input))
        (pin (num 64) (name PJ5) (type input))
        (pin (num 65) (name D29) (type input))
        (pin (num 66) (name D39) (type input))
        (pin (num 67) (name D27) (type input))
        (pin (num 68) (name D28) (type input))
        (pin (num 69) (name D25) (type input))
        (pin (num 70) (name D26) (type input))
        (pin (num 71) (name D23) (type input))
        (pin (num 72) (name D24) (type input))
        (pin (num 73) (name PJ7) (type input))
        (pin (num 74) (name D22) (type input))
        (pin (num 75) (name RESET) (type input))
        (pin (num 76) (name GND) (type input))
        (pin (num 77) (name SCK) (type input))
        (pin (num 78) (name MOSI) (type input))
        (pin (num 79) (name MISO) (type input))
        (pin (num 80) (name VCC) (type input))
        (pin (num 81) (name VCC) (type input))
        (pin (num 82) (name VCC) (type input))
        (pin (num 83) (name D30) (type input))
        (pin (num 84) (name D31) (type input))
        (pin (num 85) (name D32) (type input))
        (pin (num 86) (name D33) (type input))
        (pin (num 87) (name D34) (type input))
        (pin (num 88) (name D35) (type input))
        (pin (num 89) (name D36) (type input))
        (pin (num 90) (name D37) (type input))
        (pin (num 91) (name D40) (type input))
        (pin (num 92) (name D41) (type input))
        (pin (num 93) (name D38) (type input))
        (pin (num 94) (name PD6) (type input))
        (pin (num 95) (name PD5) (type input))
        (pin (num 96) (name PD4) (type input))
        (pin (num 97) (name PG4) (type input))
        (pin (num 99) (name GND) (type input))
        (pin (num 100) (name GND) (type input))))
    (libpart (lib transistors) (part IRF540N)
      (description "100V Vds, 33A Id, HEXFET N-Channel MOSFET, TO-220")
      (docs http://www.irf.com/product-info/datasheets/data/irf540n.pdf)
      (footprints
        (fp TO-220*))
      (fields
        (field (name Reference) Q)
        (field (name Value) IRF540N)
        (field (name Footprint) TO-220))
      (pins
        (pin (num 1) (name G) (type input))
        (pin (num 2) (name D) (type passive))
        (pin (num 3) (name S) (type passive))))
    (libpart (lib my-regulators) (part LF50CV)
      (description "Positive 500mA 16V Linear Regulator, Fixed Output 5V, TO-220")
      (footprints
        (fp TO*))
      (fields
        (field (name Reference) U)
        (field (name Value) LF50CV))
      (pins
        (pin (num 1) (name IN) (type input))
        (pin (num 2) (name GND) (type power_in))
        (pin (num 3) (name OUT) (type power_out))))
    (libpart (lib my-regulators) (part MCP1702)
      (description "MCP1702 250 mA Low Quiescent Current LDO Regulator (1.2V, 1.5V, 1.8V, 2.5V, 2.8V, 3.0V, 3.3V, 4.0V, 5.0V)")
      (footprints
        (fp TO*))
      (fields
        (field (name Reference) U)
        (field (name Value) MCP1702)
        (field (name Footprint) TO-92))
      (pins
        (pin (num 1) (name GND) (type power_in))
        (pin (num 2) (name IN) (type input))
        (pin (num 3) (name OUT) (type power_out))))
    (libpart (lib stairs-dimmer-cache) (part NRF24L01)
      (fields
        (field (name Reference) U)
        (field (name Value) NRF24L01))
      (pins
        (pin (num 1) (name GND) (type input))
        (pin (num 2) (name VCC) (type input))
        (pin (num 3) (name CE) (type input))
        (pin (num 4) (name CSN) (type input))
        (pin (num 5) (name SCK) (type input))
        (pin (num 6) (name MOSI) (type input))
        (pin (num 7) (name MISO) (type input))
        (pin (num 8) (name IRQ) (type input))))
    (libpart (lib device) (part R)
      (description Resistor)
      (footprints
        (fp R_*)
        (fp Resistor_*))
      (fields
        (field (name Reference) R)
        (field (name Value) R))
      (pins
        (pin (num 1) (name ~) (type passive))
        (pin (num 2) (name ~) (type passive)))))
  (libraries
    (library (logical device)
      (uri /usr/share/kicad/library/device.lib))
    (library (logical conn)
      (uri /usr/share/kicad/library/conn.lib))
    (library (logical transistors)
      (uri /usr/share/kicad/library/transistors.lib))
    (library (logical my-microcontrollers)
      (uri /mnt/sdc1/riton/kicad/library/my-microcontrollers.lib))
    (library (logical my-regulators)
      (uri /mnt/sdc1/riton/kicad/library/my-regulators.lib))
    (library (logical stairs-dimmer-cache)
      (uri /home/riton/projects/led-stairs-lighting/kicad/stairs-dimmer-cache.lib)))
  (nets
    (net (code 1) (name "Net-(Q12-Pad1)")
      (node (ref R29) (pin 2))
      (node (ref R14) (pin 1))
      (node (ref Q12) (pin 1)))
    (net (code 2) (name "Net-(P15-Pad2)")
      (node (ref P15) (pin 2))
      (node (ref Q12) (pin 2)))
    (net (code 3) (name "Net-(Q11-Pad1)")
      (node (ref Q11) (pin 1))
      (node (ref R13) (pin 1))
      (node (ref R28) (pin 2)))
    (net (code 4) (name "Net-(P14-Pad2)")
      (node (ref Q11) (pin 2))
      (node (ref P14) (pin 2)))
    (net (code 5) (name "Net-(Q14-Pad1)")
      (node (ref R31) (pin 2))
      (node (ref Q14) (pin 1))
      (node (ref R16) (pin 1)))
    (net (code 6) (name "Net-(P17-Pad2)")
      (node (ref P17) (pin 2))
      (node (ref Q14) (pin 2)))
    (net (code 7) (name "Net-(Q10-Pad1)")
      (node (ref R27) (pin 2))
      (node (ref R12) (pin 1))
      (node (ref Q10) (pin 1)))
    (net (code 8) (name "Net-(Q13-Pad1)")
      (node (ref R15) (pin 1))
      (node (ref R30) (pin 2))
      (node (ref Q13) (pin 1)))
    (net (code 9) (name "Net-(P16-Pad2)")
      (node (ref Q13) (pin 2))
      (node (ref P16) (pin 2)))
    (net (code 10) (name "Net-(P11-Pad2)")
      (node (ref P11) (pin 2))
      (node (ref Q8) (pin 2)))
    (net (code 11) (name "Net-(Q7-Pad1)")
      (node (ref R24) (pin 2))
      (node (ref R9) (pin 1))
      (node (ref Q7) (pin 1)))
    (net (code 12) (name "Net-(Q8-Pad1)")
      (node (ref R25) (pin 2))
      (node (ref Q8) (pin 1))
      (node (ref R10) (pin 1)))
    (net (code 13) (name "Net-(P10-Pad2)")
      (node (ref Q7) (pin 2))
      (node (ref P10) (pin 2)))
    (net (code 14) (name +12V)
      (node (ref P11) (pin 1))
      (node (ref P17) (pin 1))
      (node (ref P7) (pin 1))
      (node (ref P6) (pin 1))
      (node (ref P8) (pin 1))
      (node (ref P12) (pin 1))
      (node (ref P10) (pin 1))
      (node (ref P9) (pin 1))
      (node (ref P14) (pin 1))
      (node (ref C4) (pin 1))
      (node (ref U1) (pin 1))
      (node (ref P19) (pin 1))
      (node (ref P5) (pin 1))
      (node (ref P4) (pin 1))
      (node (ref P16) (pin 1))
      (node (ref P18) (pin 1))
      (node (ref P13) (pin 1))
      (node (ref P15) (pin 1)))
    (net (code 15) (name "Net-(Q6-Pad1)")
      (node (ref R23) (pin 2))
      (node (ref R8) (pin 1))
      (node (ref Q6) (pin 1)))
    (net (code 16) (name "Net-(Q9-Pad1)")
      (node (ref Q9) (pin 1))
      (node (ref R11) (pin 1))
      (node (ref R26) (pin 2)))
    (net (code 17) (name "Net-(P13-Pad2)")
      (node (ref P13) (pin 2))
      (node (ref Q10) (pin 2)))
    (net (code 18) (name "Net-(P18-Pad2)")
      (node (ref P18) (pin 2))
      (node (ref Q15) (pin 2)))
    (net (code 19) (name "Net-(P12-Pad2)")
      (node (ref P12) (pin 2))
      (node (ref Q9) (pin 2)))
    (net (code 20) (name "Net-(U3-Pad16)")
      (node (ref U3) (pin 16)))
    (net (code 21) (name "Net-(U3-Pad36)")
      (node (ref U3) (pin 36)))
    (net (code 22) (name "Net-(U3-Pad46)")
      (node (ref U3) (pin 46)))
    (net (code 23) (name "Net-(U3-Pad56)")
      (node (ref U3) (pin 56)))
    (net (code 24) (name "Net-(U3-Pad66)")
      (node (ref U3) (pin 66)))
    (net (code 25) (name "Net-(U3-Pad86)")
      (node (ref U3) (pin 86)))
    (net (code 26) (name "Net-(U3-Pad96)")
      (node (ref U3) (pin 96)))
    (net (code 27) (name "Net-(U3-Pad95)")
      (node (ref U3) (pin 95)))
    (net (code 28) (name "Net-(U3-Pad37)")
      (node (ref U3) (pin 37)))
    (net (code 29) (name "Net-(U3-Pad47)")
      (node (ref U3) (pin 47)))
    (net (code 30) (name "Net-(U3-Pad57)")
      (node (ref U3) (pin 57)))
    (net (code 31) (name "Net-(U3-Pad67)")
      (node (ref U3) (pin 67)))
    (net (code 32) (name "Net-(U3-Pad87)")
      (node (ref U3) (pin 87)))
    (net (code 33) (name "Net-(U3-Pad97)")
      (node (ref U3) (pin 97)))
    (net (code 34) (name "Net-(U3-Pad84)")
      (node (ref U3) (pin 84)))
    (net (code 35) (name "Net-(U3-Pad83)")
      (node (ref U3) (pin 83)))
    (net (code 36) (name "Net-(U3-Pad93)")
      (node (ref U3) (pin 93)))
    (net (code 37) (name "Net-(U3-Pad14)")
      (node (ref U3) (pin 14)))
    (net (code 38) (name "Net-(U3-Pad44)")
      (node (ref U3) (pin 44)))
    (net (code 39) (name "Net-(U3-Pad54)")
      (node (ref U3) (pin 54)))
    (net (code 40) (name "Net-(U3-Pad64)")
      (node (ref U3) (pin 64)))
    (net (code 41) (name "Net-(U3-Pad74)")
      (node (ref U3) (pin 74)))
    (net (code 42) (name "Net-(U3-Pad94)")
      (node (ref U3) (pin 94)))
    (net (code 43) (name "Net-(U3-Pad15)")
      (node (ref U3) (pin 15)))
    (net (code 44) (name "Net-(U3-Pad35)")
      (node (ref U3) (pin 35)))
    (net (code 45) (name "Net-(U3-Pad45)")
      (node (ref U3) (pin 45)))
    (net (code 46) (name "Net-(U3-Pad55)")
      (node (ref U3) (pin 55)))
    (net (code 47) (name "Net-(U3-Pad65)")
      (node (ref U3) (pin 65)))
    (net (code 48) (name "Net-(U3-Pad75)")
      (node (ref U3) (pin 75)))
    (net (code 49) (name "Net-(U3-Pad85)")
      (node (ref U3) (pin 85)))
    (net (code 50) (name GND)
      (node (ref R30) (pin 1))
      (node (ref R27) (pin 1))
      (node (ref R31) (pin 1))
      (node (ref R20) (pin 1))
      (node (ref R24) (pin 1))
      (node (ref R22) (pin 1))
      (node (ref R25) (pin 1))
      (node (ref C2) (pin 2))
      (node (ref C5) (pin 2))
      (node (ref R32) (pin 1))
      (node (ref R29) (pin 1))
      (node (ref R21) (pin 1))
      (node (ref R18) (pin 1))
      (node (ref Q6) (pin 3))
      (node (ref Q7) (pin 3))
      (node (ref Q8) (pin 3))
      (node (ref Q15) (pin 3))
      (node (ref Q9) (pin 3))
      (node (ref Q10) (pin 3))
      (node (ref Q11) (pin 3))
      (node (ref Q12) (pin 3))
      (node (ref Q13) (pin 3))
      (node (ref Q14) (pin 3))
      (node (ref Q3) (pin 3))
      (node (ref Q4) (pin 3))
      (node (ref Q5) (pin 3))
      (node (ref C3) (pin 2))
      (node (ref R19) (pin 1))
      (node (ref R28) (pin 1))
      (node (ref R26) (pin 1))
      (node (ref P2) (pin 3))
      (node (ref P1) (pin 3))
      (node (ref Q2) (pin 3))
      (node (ref U3) (pin 76))
      (node (ref C1) (pin 2))
      (node (ref P19) (pin 2))
      (node (ref Q1) (pin 3))
      (node (ref U2) (pin 1))
      (node (ref U1) (pin 2))
      (node (ref C4) (pin 2))
      (node (ref R23) (pin 1))
      (node (ref U4) (pin 1)))
    (net (code 51) (name +3V3)
      (node (ref C3) (pin 1))
      (node (ref U2) (pin 2))
      (node (ref C5) (pin 1))
      (node (ref U4) (pin 3)))
    (net (code 52) (name "Net-(Q15-Pad1)")
      (node (ref R32) (pin 2))
      (node (ref R17) (pin 1))
      (node (ref Q15) (pin 1)))
    (net (code 53) (name "Net-(U3-Pad49)")
      (node (ref U3) (pin 49)))
    (net (code 54) (name "Net-(U3-Pad38)")
      (node (ref U3) (pin 38)))
    (net (code 55) (name "Net-(U3-Pad48)")
      (node (ref U3) (pin 48)))
    (net (code 56) (name "Net-(U3-Pad58)")
      (node (ref U3) (pin 58)))
    (net (code 57) (name "Net-(U3-Pad68)")
      (node (ref U3) (pin 68)))
    (net (code 58) (name "Net-(U3-Pad88)")
      (node (ref U3) (pin 88)))
    (net (code 59) (name "Net-(U3-Pad19)")
      (node (ref U3) (pin 19)))
    (net (code 60) (name "Net-(U3-Pad39)")
      (node (ref U3) (pin 39)))
    (net (code 61) (name "Net-(P9-Pad2)")
      (node (ref Q6) (pin 2))
      (node (ref P9) (pin 2)))
    (net (code 62) (name "Net-(U3-Pad59)")
      (node (ref U3) (pin 59)))
    (net (code 63) (name "Net-(U3-Pad69)")
      (node (ref U3) (pin 69)))
    (net (code 64) (name "Net-(U3-Pad89)")
      (node (ref U3) (pin 89)))
    (net (code 65) (name "Net-(U3-Pad99)")
      (node (ref U3) (pin 99)))
    (net (code 66) (name "Net-(U3-Pad100)")
      (node (ref U3) (pin 100)))
    (net (code 67) (name +5V)
      (node (ref C2) (pin 1))
      (node (ref U1) (pin 3))
      (node (ref U3) (pin 2))
      (node (ref C1) (pin 1))
      (node (ref P2) (pin 1))
      (node (ref P1) (pin 1))
      (node (ref U4) (pin 2)))
    (net (code 68) (name "Net-(P2-Pad2)")
      (node (ref P2) (pin 2))
      (node (ref U3) (pin 17)))
    (net (code 69) (name "Net-(P1-Pad2)")
      (node (ref U3) (pin 18))
      (node (ref P1) (pin 2)))
    (net (code 70) (name "Net-(U2-Pad6)")
      (node (ref U3) (pin 78))
      (node (ref U2) (pin 6)))
    (net (code 71) (name "Net-(U2-Pad7)")
      (node (ref U2) (pin 7))
      (node (ref U3) (pin 79)))
    (net (code 72) (name "Net-(R4-Pad2)")
      (node (ref R4) (pin 2))
      (node (ref U3) (pin 33)))
    (net (code 73) (name "Net-(R7-Pad2)")
      (node (ref R7) (pin 2))
      (node (ref U3) (pin 27)))
    (net (code 74) (name "Net-(R6-Pad2)")
      (node (ref U3) (pin 28))
      (node (ref R6) (pin 2)))
    (net (code 75) (name "Net-(R5-Pad2)")
      (node (ref U3) (pin 34))
      (node (ref R5) (pin 2)))
    (net (code 76) (name "Net-(U2-Pad5)")
      (node (ref U3) (pin 77))
      (node (ref U2) (pin 5)))
    (net (code 77) (name "Net-(R3-Pad2)")
      (node (ref R3) (pin 2))
      (node (ref U3) (pin 32)))
    (net (code 78) (name "Net-(U2-Pad4)")
      (node (ref U3) (pin 24))
      (node (ref U2) (pin 4)))
    (net (code 79) (name "Net-(U2-Pad3)")
      (node (ref U2) (pin 3))
      (node (ref U3) (pin 29)))
    (net (code 80) (name "Net-(Q3-Pad1)")
      (node (ref Q3) (pin 1))
      (node (ref R5) (pin 1))
      (node (ref R20) (pin 2)))
    (net (code 81) (name "Net-(P6-Pad2)")
      (node (ref P6) (pin 2))
      (node (ref Q3) (pin 2)))
    (net (code 82) (name "Net-(Q2-Pad1)")
      (node (ref R19) (pin 2))
      (node (ref R4) (pin 1))
      (node (ref Q2) (pin 1)))
    (net (code 83) (name "Net-(P5-Pad2)")
      (node (ref Q2) (pin 2))
      (node (ref P5) (pin 2)))
    (net (code 84) (name "Net-(P8-Pad2)")
      (node (ref Q5) (pin 2))
      (node (ref P8) (pin 2)))
    (net (code 85) (name "Net-(Q5-Pad1)")
      (node (ref R22) (pin 2))
      (node (ref Q5) (pin 1))
      (node (ref R7) (pin 1)))
    (net (code 86) (name "Net-(Q4-Pad1)")
      (node (ref R21) (pin 2))
      (node (ref R6) (pin 1))
      (node (ref Q4) (pin 1)))
    (net (code 87) (name "Net-(P7-Pad2)")
      (node (ref P7) (pin 2))
      (node (ref Q4) (pin 2)))
    (net (code 88) (name "Net-(R10-Pad2)")
      (node (ref R10) (pin 2))
      (node (ref U3) (pin 23)))
    (net (code 89) (name "Net-(R13-Pad2)")
      (node (ref U3) (pin 20))
      (node (ref R13) (pin 2)))
    (net (code 90) (name "Net-(R12-Pad2)")
      (node (ref R12) (pin 2))
      (node (ref U3) (pin 21)))
    (net (code 91) (name "Net-(R11-Pad2)")
      (node (ref R11) (pin 2))
      (node (ref U3) (pin 22)))
    (net (code 92) (name "Net-(R9-Pad2)")
      (node (ref R9) (pin 2))
      (node (ref U3) (pin 25)))
    (net (code 93) (name "Net-(R8-Pad2)")
      (node (ref U3) (pin 26))
      (node (ref R8) (pin 2)))
    (net (code 94) (name "Net-(R17-Pad2)")
      (node (ref U3) (pin 7))
      (node (ref R17) (pin 2)))
    (net (code 95) (name "Net-(Q1-Pad1)")
      (node (ref R3) (pin 1))
      (node (ref Q1) (pin 1))
      (node (ref R18) (pin 2)))
    (net (code 96) (name "Net-(P4-Pad2)")
      (node (ref Q1) (pin 2))
      (node (ref P4) (pin 2)))
    (net (code 97) (name "Net-(U3-Pad73)")
      (node (ref U3) (pin 73)))
    (net (code 98) (name "Net-(R16-Pad2)")
      (node (ref R16) (pin 2))
      (node (ref U3) (pin 8)))
    (net (code 99) (name "Net-(R15-Pad2)")
      (node (ref R15) (pin 2))
      (node (ref U3) (pin 3)))
    (net (code 100) (name "Net-(R14-Pad2)")
      (node (ref R14) (pin 2))
      (node (ref U3) (pin 6)))
    (net (code 101) (name "Net-(U3-Pad1)")
      (node (ref U3) (pin 1)))
    (net (code 102) (name "Net-(U3-Pad4)")
      (node (ref U3) (pin 4)))
    (net (code 103) (name "Net-(U2-Pad8)")
      (node (ref U2) (pin 8)))
    (net (code 104) (name "Net-(U3-Pad62)")
      (node (ref U3) (pin 62)))
    (net (code 105) (name "Net-(U3-Pad61)")
      (node (ref U3) (pin 61)))
    (net (code 106) (name "Net-(U3-Pad71)")
      (node (ref U3) (pin 71)))
    (net (code 107) (name "Net-(U3-Pad81)")
      (node (ref U3) (pin 81)))
    (net (code 108) (name "Net-(U3-Pad91)")
      (node (ref U3) (pin 91)))
    (net (code 109) (name "Net-(U3-Pad12)")
      (node (ref U3) (pin 12)))
    (net (code 110) (name "Net-(U3-Pad42)")
      (node (ref U3) (pin 42)))
    (net (code 111) (name "Net-(U3-Pad52)")
      (node (ref U3) (pin 52)))
    (net (code 112) (name "Net-(U3-Pad51)")
      (node (ref U3) (pin 51)))
    (net (code 113) (name "Net-(U3-Pad72)")
      (node (ref U3) (pin 72)))
    (net (code 114) (name "Net-(U3-Pad82)")
      (node (ref U3) (pin 82)))
    (net (code 115) (name "Net-(U3-Pad92)")
      (node (ref U3) (pin 92)))
    (net (code 116) (name "Net-(U3-Pad13)")
      (node (ref U3) (pin 13)))
    (net (code 117) (name "Net-(U3-Pad43)")
      (node (ref U3) (pin 43)))
    (net (code 118) (name "Net-(U3-Pad53)")
      (node (ref U3) (pin 53)))
    (net (code 119) (name "Net-(U3-Pad63)")
      (node (ref U3) (pin 63)))
    (net (code 120) (name "Net-(U3-Pad50)")
      (node (ref U3) (pin 50)))
    (net (code 121) (name "Net-(U3-Pad5)")
      (node (ref U3) (pin 5)))
    (net (code 122) (name "Net-(U3-Pad9)")
      (node (ref U3) (pin 9)))
    (net (code 123) (name "Net-(U3-Pad10)")
      (node (ref U3) (pin 10)))
    (net (code 124) (name "Net-(U3-Pad30)")
      (node (ref U3) (pin 30)))
    (net (code 125) (name "Net-(U3-Pad40)")
      (node (ref U3) (pin 40)))
    (net (code 126) (name "Net-(U3-Pad60)")
      (node (ref U3) (pin 60)))
    (net (code 127) (name "Net-(U3-Pad70)")
      (node (ref U3) (pin 70)))
    (net (code 128) (name "Net-(U3-Pad80)")
      (node (ref U3) (pin 80)))
    (net (code 129) (name "Net-(U3-Pad90)")
      (node (ref U3) (pin 90)))
    (net (code 130) (name "Net-(U3-Pad11)")
      (node (ref U3) (pin 11)))
    (net (code 131) (name "Net-(U3-Pad31)")
      (node (ref U3) (pin 31)))
    (net (code 132) (name "Net-(U3-Pad41)")
      (node (ref U3) (pin 41)))))