EESchema Schematic File Version 2
LIBS:power
LIBS:device
LIBS:transistors
LIBS:conn
LIBS:linear
LIBS:regul
LIBS:74xx
LIBS:cmos4000
LIBS:adc-dac
LIBS:memory
LIBS:xilinx
LIBS:microcontrollers
LIBS:dsp
LIBS:microchip
LIBS:analog_switches
LIBS:motorola
LIBS:texas
LIBS:intel
LIBS:audio
LIBS:interface
LIBS:digital-audio
LIBS:philips
LIBS:display
LIBS:cypress
LIBS:siliconi
LIBS:opto
LIBS:atmel
LIBS:contrib
LIBS:valves
LIBS:my-microcontrollers
LIBS:my-power-supplies
LIBS:my-passives
LIBS:my-regulators
LIBS:stairs-dimmer-cache
EELAYER 25 0
EELAYER END
$Descr A2 16535 23386 portrait
encoding utf-8
Sheet 1 1
Title ""
Date ""
Rev ""
Comp ""
Comment1 ""
Comment2 ""
Comment3 ""
Comment4 ""
$EndDescr
$Comp
L R R17
U 1 1 5C7E9F71
P 9250 17750
F 0 "R17" V 9330 17750 50  0000 C CNN
F 1 "220" V 9250 17750 50  0000 C CNN
F 2 "Resistors_ThroughHole:Resistor_Horizontal_RM10mm" V 9180 17750 50  0001 C CNN
F 3 "" H 9250 17750 50  0000 C CNN
	1    9250 17750
	0    1    1    0   
$EndComp
$Comp
L R R32
U 1 1 5C7E9FE2
P 9500 18000
F 0 "R32" V 9580 18000 50  0000 C CNN
F 1 "100K" V 9500 18000 50  0000 C CNN
F 2 "Resistors_ThroughHole:Resistor_Horizontal_RM10mm" V 9430 18000 50  0001 C CNN
F 3 "" H 9500 18000 50  0000 C CNN
	1    9500 18000
	-1   0    0    1   
$EndComp
$Comp
L GND #PWR01
U 1 1 5C7EA015
P 9500 18250
F 0 "#PWR01" H 9500 18000 50  0001 C CNN
F 1 "GND" H 9500 18100 50  0000 C CNN
F 2 "" H 9500 18250 50  0000 C CNN
F 3 "" H 9500 18250 50  0000 C CNN
	1    9500 18250
	1    0    0    -1  
$EndComp
$Comp
L GND #PWR02
U 1 1 5C7EA043
P 9900 18050
F 0 "#PWR02" H 9900 17800 50  0001 C CNN
F 1 "GND" H 9900 17900 50  0000 C CNN
F 2 "" H 9900 18050 50  0000 C CNN
F 3 "" H 9900 18050 50  0000 C CNN
	1    9900 18050
	1    0    0    -1  
$EndComp
$Comp
L CONN_01X02 P18
U 1 1 5C7EA063
P 10600 17300
F 0 "P18" H 10600 17450 50  0000 C CNN
F 1 "LED1" V 10700 17300 50  0000 C CNN
F 2 "myConnectors:NINIGI_NS25-W2K" H 10600 17300 50  0001 C CNN
F 3 "" H 10600 17300 50  0000 C CNN
	1    10600 17300
	1    0    0    -1  
$EndComp
$Comp
L +12V #PWR03
U 1 1 5C7EA0E1
P 10300 17150
F 0 "#PWR03" H 10300 17000 50  0001 C CNN
F 1 "+12V" H 10300 17290 50  0000 C CNN
F 2 "" H 10300 17150 50  0000 C CNN
F 3 "" H 10300 17150 50  0000 C CNN
	1    10300 17150
	1    0    0    -1  
$EndComp
$Comp
L R R16
U 1 1 5C7EA50A
P 9250 16800
F 0 "R16" V 9330 16800 50  0000 C CNN
F 1 "220" V 9250 16800 50  0000 C CNN
F 2 "Resistors_ThroughHole:Resistor_Horizontal_RM10mm" V 9180 16800 50  0001 C CNN
F 3 "" H 9250 16800 50  0000 C CNN
	1    9250 16800
	0    1    1    0   
$EndComp
$Comp
L R R31
U 1 1 5C7EA511
P 9500 17050
F 0 "R31" V 9580 17050 50  0000 C CNN
F 1 "100K" V 9500 17050 50  0000 C CNN
F 2 "Resistors_ThroughHole:Resistor_Horizontal_RM10mm" V 9430 17050 50  0001 C CNN
F 3 "" H 9500 17050 50  0000 C CNN
	1    9500 17050
	-1   0    0    1   
$EndComp
$Comp
L GND #PWR04
U 1 1 5C7EA519
P 9500 17300
F 0 "#PWR04" H 9500 17050 50  0001 C CNN
F 1 "GND" H 9500 17150 50  0000 C CNN
F 2 "" H 9500 17300 50  0000 C CNN
F 3 "" H 9500 17300 50  0000 C CNN
	1    9500 17300
	1    0    0    -1  
$EndComp
$Comp
L GND #PWR05
U 1 1 5C7EA520
P 9900 17100
F 0 "#PWR05" H 9900 16850 50  0001 C CNN
F 1 "GND" H 9900 16950 50  0000 C CNN
F 2 "" H 9900 17100 50  0000 C CNN
F 3 "" H 9900 17100 50  0000 C CNN
	1    9900 17100
	1    0    0    -1  
$EndComp
$Comp
L CONN_01X02 P17
U 1 1 5C7EA527
P 10600 16350
F 0 "P17" H 10600 16500 50  0000 C CNN
F 1 "LED2" V 10700 16350 50  0000 C CNN
F 2 "myConnectors:NINIGI_NS25-W2K" H 10600 16350 50  0001 C CNN
F 3 "" H 10600 16350 50  0000 C CNN
	1    10600 16350
	1    0    0    -1  
$EndComp
$Comp
L +12V #PWR06
U 1 1 5C7EA52F
P 10300 16200
F 0 "#PWR06" H 10300 16050 50  0001 C CNN
F 1 "+12V" H 10300 16340 50  0000 C CNN
F 2 "" H 10300 16200 50  0000 C CNN
F 3 "" H 10300 16200 50  0000 C CNN
	1    10300 16200
	1    0    0    -1  
$EndComp
$Comp
L R R15
U 1 1 5C7EA672
P 9250 15850
F 0 "R15" V 9330 15850 50  0000 C CNN
F 1 "220" V 9250 15850 50  0000 C CNN
F 2 "Resistors_ThroughHole:Resistor_Horizontal_RM10mm" V 9180 15850 50  0001 C CNN
F 3 "" H 9250 15850 50  0000 C CNN
	1    9250 15850
	0    1    1    0   
$EndComp
$Comp
L R R30
U 1 1 5C7EA679
P 9500 16100
F 0 "R30" V 9580 16100 50  0000 C CNN
F 1 "100K" V 9500 16100 50  0000 C CNN
F 2 "Resistors_ThroughHole:Resistor_Horizontal_RM10mm" V 9430 16100 50  0001 C CNN
F 3 "" H 9500 16100 50  0000 C CNN
	1    9500 16100
	-1   0    0    1   
$EndComp
$Comp
L GND #PWR07
U 1 1 5C7EA681
P 9500 16350
F 0 "#PWR07" H 9500 16100 50  0001 C CNN
F 1 "GND" H 9500 16200 50  0000 C CNN
F 2 "" H 9500 16350 50  0000 C CNN
F 3 "" H 9500 16350 50  0000 C CNN
	1    9500 16350
	1    0    0    -1  
$EndComp
$Comp
L GND #PWR08
U 1 1 5C7EA688
P 9900 16150
F 0 "#PWR08" H 9900 15900 50  0001 C CNN
F 1 "GND" H 9900 16000 50  0000 C CNN
F 2 "" H 9900 16150 50  0000 C CNN
F 3 "" H 9900 16150 50  0000 C CNN
	1    9900 16150
	1    0    0    -1  
$EndComp
$Comp
L CONN_01X02 P16
U 1 1 5C7EA68F
P 10600 15400
F 0 "P16" H 10600 15550 50  0000 C CNN
F 1 "LED3" V 10700 15400 50  0000 C CNN
F 2 "myConnectors:NINIGI_NS25-W2K" H 10600 15400 50  0001 C CNN
F 3 "" H 10600 15400 50  0000 C CNN
	1    10600 15400
	1    0    0    -1  
$EndComp
$Comp
L +12V #PWR09
U 1 1 5C7EA697
P 10300 15250
F 0 "#PWR09" H 10300 15100 50  0001 C CNN
F 1 "+12V" H 10300 15390 50  0000 C CNN
F 2 "" H 10300 15250 50  0000 C CNN
F 3 "" H 10300 15250 50  0000 C CNN
	1    10300 15250
	1    0    0    -1  
$EndComp
$Comp
L R R14
U 1 1 5C7EA6A5
P 9250 14900
F 0 "R14" V 9330 14900 50  0000 C CNN
F 1 "220" V 9250 14900 50  0000 C CNN
F 2 "Resistors_ThroughHole:Resistor_Horizontal_RM10mm" V 9180 14900 50  0001 C CNN
F 3 "" H 9250 14900 50  0000 C CNN
	1    9250 14900
	0    1    1    0   
$EndComp
$Comp
L R R29
U 1 1 5C7EA6AC
P 9500 15150
F 0 "R29" V 9580 15150 50  0000 C CNN
F 1 "100K" V 9500 15150 50  0000 C CNN
F 2 "Resistors_ThroughHole:Resistor_Horizontal_RM10mm" V 9430 15150 50  0001 C CNN
F 3 "" H 9500 15150 50  0000 C CNN
	1    9500 15150
	-1   0    0    1   
$EndComp
$Comp
L GND #PWR010
U 1 1 5C7EA6B4
P 9500 15400
F 0 "#PWR010" H 9500 15150 50  0001 C CNN
F 1 "GND" H 9500 15250 50  0000 C CNN
F 2 "" H 9500 15400 50  0000 C CNN
F 3 "" H 9500 15400 50  0000 C CNN
	1    9500 15400
	1    0    0    -1  
$EndComp
$Comp
L GND #PWR011
U 1 1 5C7EA6BB
P 9900 15200
F 0 "#PWR011" H 9900 14950 50  0001 C CNN
F 1 "GND" H 9900 15050 50  0000 C CNN
F 2 "" H 9900 15200 50  0000 C CNN
F 3 "" H 9900 15200 50  0000 C CNN
	1    9900 15200
	1    0    0    -1  
$EndComp
$Comp
L CONN_01X02 P15
U 1 1 5C7EA6C2
P 10600 14450
F 0 "P15" H 10600 14600 50  0000 C CNN
F 1 "LED4" V 10700 14450 50  0000 C CNN
F 2 "myConnectors:NINIGI_NS25-W2K" H 10600 14450 50  0001 C CNN
F 3 "" H 10600 14450 50  0000 C CNN
	1    10600 14450
	1    0    0    -1  
$EndComp
$Comp
L +12V #PWR012
U 1 1 5C7EA6CA
P 10300 14300
F 0 "#PWR012" H 10300 14150 50  0001 C CNN
F 1 "+12V" H 10300 14440 50  0000 C CNN
F 2 "" H 10300 14300 50  0000 C CNN
F 3 "" H 10300 14300 50  0000 C CNN
	1    10300 14300
	1    0    0    -1  
$EndComp
$Comp
L R R13
U 1 1 5C7EAE87
P 9250 13950
F 0 "R13" V 9330 13950 50  0000 C CNN
F 1 "220" V 9250 13950 50  0000 C CNN
F 2 "Resistors_ThroughHole:Resistor_Horizontal_RM10mm" V 9180 13950 50  0001 C CNN
F 3 "" H 9250 13950 50  0000 C CNN
	1    9250 13950
	0    1    1    0   
$EndComp
$Comp
L R R28
U 1 1 5C7EAE8E
P 9500 14200
F 0 "R28" V 9580 14200 50  0000 C CNN
F 1 "100K" V 9500 14200 50  0000 C CNN
F 2 "Resistors_ThroughHole:Resistor_Horizontal_RM10mm" V 9430 14200 50  0001 C CNN
F 3 "" H 9500 14200 50  0000 C CNN
	1    9500 14200
	-1   0    0    1   
$EndComp
$Comp
L GND #PWR013
U 1 1 5C7EAE96
P 9500 14450
F 0 "#PWR013" H 9500 14200 50  0001 C CNN
F 1 "GND" H 9500 14300 50  0000 C CNN
F 2 "" H 9500 14450 50  0000 C CNN
F 3 "" H 9500 14450 50  0000 C CNN
	1    9500 14450
	1    0    0    -1  
$EndComp
$Comp
L GND #PWR014
U 1 1 5C7EAE9D
P 9900 14250
F 0 "#PWR014" H 9900 14000 50  0001 C CNN
F 1 "GND" H 9900 14100 50  0000 C CNN
F 2 "" H 9900 14250 50  0000 C CNN
F 3 "" H 9900 14250 50  0000 C CNN
	1    9900 14250
	1    0    0    -1  
$EndComp
$Comp
L CONN_01X02 P14
U 1 1 5C7EAEA4
P 10600 13500
F 0 "P14" H 10600 13650 50  0000 C CNN
F 1 "LED5" V 10700 13500 50  0000 C CNN
F 2 "myConnectors:NINIGI_NS25-W2K" H 10600 13500 50  0001 C CNN
F 3 "" H 10600 13500 50  0000 C CNN
	1    10600 13500
	1    0    0    -1  
$EndComp
$Comp
L +12V #PWR015
U 1 1 5C7EAEAC
P 10300 13350
F 0 "#PWR015" H 10300 13200 50  0001 C CNN
F 1 "+12V" H 10300 13490 50  0000 C CNN
F 2 "" H 10300 13350 50  0000 C CNN
F 3 "" H 10300 13350 50  0000 C CNN
	1    10300 13350
	1    0    0    -1  
$EndComp
$Comp
L R R12
U 1 1 5C7EAEBA
P 9250 13000
F 0 "R12" V 9330 13000 50  0000 C CNN
F 1 "220" V 9250 13000 50  0000 C CNN
F 2 "Resistors_ThroughHole:Resistor_Horizontal_RM10mm" V 9180 13000 50  0001 C CNN
F 3 "" H 9250 13000 50  0000 C CNN
	1    9250 13000
	0    1    1    0   
$EndComp
$Comp
L R R27
U 1 1 5C7EAEC1
P 9500 13250
F 0 "R27" V 9580 13250 50  0000 C CNN
F 1 "100K" V 9500 13250 50  0000 C CNN
F 2 "Resistors_ThroughHole:Resistor_Horizontal_RM10mm" V 9430 13250 50  0001 C CNN
F 3 "" H 9500 13250 50  0000 C CNN
	1    9500 13250
	-1   0    0    1   
$EndComp
$Comp
L GND #PWR016
U 1 1 5C7EAEC9
P 9500 13500
F 0 "#PWR016" H 9500 13250 50  0001 C CNN
F 1 "GND" H 9500 13350 50  0000 C CNN
F 2 "" H 9500 13500 50  0000 C CNN
F 3 "" H 9500 13500 50  0000 C CNN
	1    9500 13500
	1    0    0    -1  
$EndComp
$Comp
L GND #PWR017
U 1 1 5C7EAED0
P 9900 13300
F 0 "#PWR017" H 9900 13050 50  0001 C CNN
F 1 "GND" H 9900 13150 50  0000 C CNN
F 2 "" H 9900 13300 50  0000 C CNN
F 3 "" H 9900 13300 50  0000 C CNN
	1    9900 13300
	1    0    0    -1  
$EndComp
$Comp
L CONN_01X02 P13
U 1 1 5C7EAED7
P 10600 12550
F 0 "P13" H 10600 12700 50  0000 C CNN
F 1 "LED6" V 10700 12550 50  0000 C CNN
F 2 "myConnectors:NINIGI_NS25-W2K" H 10600 12550 50  0001 C CNN
F 3 "" H 10600 12550 50  0000 C CNN
	1    10600 12550
	1    0    0    -1  
$EndComp
$Comp
L +12V #PWR018
U 1 1 5C7EAEDF
P 10300 12400
F 0 "#PWR018" H 10300 12250 50  0001 C CNN
F 1 "+12V" H 10300 12540 50  0000 C CNN
F 2 "" H 10300 12400 50  0000 C CNN
F 3 "" H 10300 12400 50  0000 C CNN
	1    10300 12400
	1    0    0    -1  
$EndComp
$Comp
L R R11
U 1 1 5C7EAEED
P 9250 12050
F 0 "R11" V 9330 12050 50  0000 C CNN
F 1 "220" V 9250 12050 50  0000 C CNN
F 2 "Resistors_ThroughHole:Resistor_Horizontal_RM10mm" V 9180 12050 50  0001 C CNN
F 3 "" H 9250 12050 50  0000 C CNN
	1    9250 12050
	0    1    1    0   
$EndComp
$Comp
L R R26
U 1 1 5C7EAEF4
P 9500 12300
F 0 "R26" V 9580 12300 50  0000 C CNN
F 1 "100K" V 9500 12300 50  0000 C CNN
F 2 "Resistors_ThroughHole:Resistor_Horizontal_RM10mm" V 9430 12300 50  0001 C CNN
F 3 "" H 9500 12300 50  0000 C CNN
	1    9500 12300
	-1   0    0    1   
$EndComp
$Comp
L GND #PWR019
U 1 1 5C7EAEFC
P 9500 12550
F 0 "#PWR019" H 9500 12300 50  0001 C CNN
F 1 "GND" H 9500 12400 50  0000 C CNN
F 2 "" H 9500 12550 50  0000 C CNN
F 3 "" H 9500 12550 50  0000 C CNN
	1    9500 12550
	1    0    0    -1  
$EndComp
$Comp
L GND #PWR020
U 1 1 5C7EAF03
P 9900 12350
F 0 "#PWR020" H 9900 12100 50  0001 C CNN
F 1 "GND" H 9900 12200 50  0000 C CNN
F 2 "" H 9900 12350 50  0000 C CNN
F 3 "" H 9900 12350 50  0000 C CNN
	1    9900 12350
	1    0    0    -1  
$EndComp
$Comp
L CONN_01X02 P12
U 1 1 5C7EAF0A
P 10600 11600
F 0 "P12" H 10600 11750 50  0000 C CNN
F 1 "LED7" V 10700 11600 50  0000 C CNN
F 2 "myConnectors:NINIGI_NS25-W2K" H 10600 11600 50  0001 C CNN
F 3 "" H 10600 11600 50  0000 C CNN
	1    10600 11600
	1    0    0    -1  
$EndComp
$Comp
L +12V #PWR021
U 1 1 5C7EAF12
P 10300 11450
F 0 "#PWR021" H 10300 11300 50  0001 C CNN
F 1 "+12V" H 10300 11590 50  0000 C CNN
F 2 "" H 10300 11450 50  0000 C CNN
F 3 "" H 10300 11450 50  0000 C CNN
	1    10300 11450
	1    0    0    -1  
$EndComp
$Comp
L R R10
U 1 1 5C7EAF20
P 9250 11100
F 0 "R10" V 9330 11100 50  0000 C CNN
F 1 "220" V 9250 11100 50  0000 C CNN
F 2 "Resistors_ThroughHole:Resistor_Horizontal_RM10mm" V 9180 11100 50  0001 C CNN
F 3 "" H 9250 11100 50  0000 C CNN
	1    9250 11100
	0    1    1    0   
$EndComp
$Comp
L R R25
U 1 1 5C7EAF27
P 9500 11350
F 0 "R25" V 9580 11350 50  0000 C CNN
F 1 "100K" V 9500 11350 50  0000 C CNN
F 2 "Resistors_ThroughHole:Resistor_Horizontal_RM10mm" V 9430 11350 50  0001 C CNN
F 3 "" H 9500 11350 50  0000 C CNN
	1    9500 11350
	-1   0    0    1   
$EndComp
$Comp
L GND #PWR022
U 1 1 5C7EAF2F
P 9500 11600
F 0 "#PWR022" H 9500 11350 50  0001 C CNN
F 1 "GND" H 9500 11450 50  0000 C CNN
F 2 "" H 9500 11600 50  0000 C CNN
F 3 "" H 9500 11600 50  0000 C CNN
	1    9500 11600
	1    0    0    -1  
$EndComp
$Comp
L GND #PWR023
U 1 1 5C7EAF36
P 9900 11400
F 0 "#PWR023" H 9900 11150 50  0001 C CNN
F 1 "GND" H 9900 11250 50  0000 C CNN
F 2 "" H 9900 11400 50  0000 C CNN
F 3 "" H 9900 11400 50  0000 C CNN
	1    9900 11400
	1    0    0    -1  
$EndComp
$Comp
L CONN_01X02 P11
U 1 1 5C7EAF3D
P 10600 10650
F 0 "P11" H 10600 10800 50  0000 C CNN
F 1 "LED8" V 10700 10650 50  0000 C CNN
F 2 "myConnectors:NINIGI_NS25-W2K" H 10600 10650 50  0001 C CNN
F 3 "" H 10600 10650 50  0000 C CNN
	1    10600 10650
	1    0    0    -1  
$EndComp
$Comp
L R R9
U 1 1 5C7EB6B7
P 9250 10150
F 0 "R9" V 9330 10150 50  0000 C CNN
F 1 "220" V 9250 10150 50  0000 C CNN
F 2 "Resistors_ThroughHole:Resistor_Horizontal_RM10mm" V 9180 10150 50  0001 C CNN
F 3 "" H 9250 10150 50  0000 C CNN
	1    9250 10150
	0    1    1    0   
$EndComp
$Comp
L R R24
U 1 1 5C7EB6BE
P 9500 10400
F 0 "R24" V 9580 10400 50  0000 C CNN
F 1 "100K" V 9500 10400 50  0000 C CNN
F 2 "Resistors_ThroughHole:Resistor_Horizontal_RM10mm" V 9430 10400 50  0001 C CNN
F 3 "" H 9500 10400 50  0000 C CNN
	1    9500 10400
	-1   0    0    1   
$EndComp
$Comp
L GND #PWR024
U 1 1 5C7EB6C6
P 9500 10650
F 0 "#PWR024" H 9500 10400 50  0001 C CNN
F 1 "GND" H 9500 10500 50  0000 C CNN
F 2 "" H 9500 10650 50  0000 C CNN
F 3 "" H 9500 10650 50  0000 C CNN
	1    9500 10650
	1    0    0    -1  
$EndComp
$Comp
L GND #PWR025
U 1 1 5C7EB6CD
P 9900 10450
F 0 "#PWR025" H 9900 10200 50  0001 C CNN
F 1 "GND" H 9900 10300 50  0000 C CNN
F 2 "" H 9900 10450 50  0000 C CNN
F 3 "" H 9900 10450 50  0000 C CNN
	1    9900 10450
	1    0    0    -1  
$EndComp
$Comp
L CONN_01X02 P10
U 1 1 5C7EB6D4
P 10600 9700
F 0 "P10" H 10600 9850 50  0000 C CNN
F 1 "LED9" V 10700 9700 50  0000 C CNN
F 2 "myConnectors:NINIGI_NS25-W2K" H 10600 9700 50  0001 C CNN
F 3 "" H 10600 9700 50  0000 C CNN
	1    10600 9700
	1    0    0    -1  
$EndComp
$Comp
L +12V #PWR026
U 1 1 5C7EB6DC
P 10300 9550
F 0 "#PWR026" H 10300 9400 50  0001 C CNN
F 1 "+12V" H 10300 9690 50  0000 C CNN
F 2 "" H 10300 9550 50  0000 C CNN
F 3 "" H 10300 9550 50  0000 C CNN
	1    10300 9550
	1    0    0    -1  
$EndComp
$Comp
L R R8
U 1 1 5C7EB6EA
P 9250 9200
F 0 "R8" V 9330 9200 50  0000 C CNN
F 1 "220" V 9250 9200 50  0000 C CNN
F 2 "Resistors_ThroughHole:Resistor_Horizontal_RM10mm" V 9180 9200 50  0001 C CNN
F 3 "" H 9250 9200 50  0000 C CNN
	1    9250 9200
	0    1    1    0   
$EndComp
$Comp
L R R23
U 1 1 5C7EB6F1
P 9500 9450
F 0 "R23" V 9580 9450 50  0000 C CNN
F 1 "100K" V 9500 9450 50  0000 C CNN
F 2 "Resistors_ThroughHole:Resistor_Horizontal_RM10mm" V 9430 9450 50  0001 C CNN
F 3 "" H 9500 9450 50  0000 C CNN
	1    9500 9450
	-1   0    0    1   
$EndComp
$Comp
L GND #PWR027
U 1 1 5C7EB6F9
P 9500 9700
F 0 "#PWR027" H 9500 9450 50  0001 C CNN
F 1 "GND" H 9500 9550 50  0000 C CNN
F 2 "" H 9500 9700 50  0000 C CNN
F 3 "" H 9500 9700 50  0000 C CNN
	1    9500 9700
	1    0    0    -1  
$EndComp
$Comp
L GND #PWR028
U 1 1 5C7EB700
P 9900 9500
F 0 "#PWR028" H 9900 9250 50  0001 C CNN
F 1 "GND" H 9900 9350 50  0000 C CNN
F 2 "" H 9900 9500 50  0000 C CNN
F 3 "" H 9900 9500 50  0000 C CNN
	1    9900 9500
	1    0    0    -1  
$EndComp
$Comp
L CONN_01X02 P9
U 1 1 5C7EB707
P 10600 8750
F 0 "P9" H 10600 8900 50  0000 C CNN
F 1 "LED10" V 10700 8750 50  0000 C CNN
F 2 "myConnectors:NINIGI_NS25-W2K" H 10600 8750 50  0001 C CNN
F 3 "" H 10600 8750 50  0000 C CNN
	1    10600 8750
	1    0    0    -1  
$EndComp
$Comp
L +12V #PWR029
U 1 1 5C7EB70F
P 10300 8600
F 0 "#PWR029" H 10300 8450 50  0001 C CNN
F 1 "+12V" H 10300 8740 50  0000 C CNN
F 2 "" H 10300 8600 50  0000 C CNN
F 3 "" H 10300 8600 50  0000 C CNN
	1    10300 8600
	1    0    0    -1  
$EndComp
$Comp
L R R7
U 1 1 5C7EB71D
P 9250 8250
F 0 "R7" V 9330 8250 50  0000 C CNN
F 1 "220" V 9250 8250 50  0000 C CNN
F 2 "Resistors_ThroughHole:Resistor_Horizontal_RM10mm" V 9180 8250 50  0001 C CNN
F 3 "" H 9250 8250 50  0000 C CNN
	1    9250 8250
	0    1    1    0   
$EndComp
$Comp
L R R22
U 1 1 5C7EB724
P 9500 8500
F 0 "R22" V 9580 8500 50  0000 C CNN
F 1 "100K" V 9500 8500 50  0000 C CNN
F 2 "Resistors_ThroughHole:Resistor_Horizontal_RM10mm" V 9430 8500 50  0001 C CNN
F 3 "" H 9500 8500 50  0000 C CNN
	1    9500 8500
	-1   0    0    1   
$EndComp
$Comp
L GND #PWR030
U 1 1 5C7EB72C
P 9500 8750
F 0 "#PWR030" H 9500 8500 50  0001 C CNN
F 1 "GND" H 9500 8600 50  0000 C CNN
F 2 "" H 9500 8750 50  0000 C CNN
F 3 "" H 9500 8750 50  0000 C CNN
	1    9500 8750
	1    0    0    -1  
$EndComp
$Comp
L GND #PWR031
U 1 1 5C7EB733
P 9900 8550
F 0 "#PWR031" H 9900 8300 50  0001 C CNN
F 1 "GND" H 9900 8400 50  0000 C CNN
F 2 "" H 9900 8550 50  0000 C CNN
F 3 "" H 9900 8550 50  0000 C CNN
	1    9900 8550
	1    0    0    -1  
$EndComp
$Comp
L CONN_01X02 P8
U 1 1 5C7EB73A
P 10600 7800
F 0 "P8" H 10600 7950 50  0000 C CNN
F 1 "LED11" V 10700 7800 50  0000 C CNN
F 2 "myConnectors:NINIGI_NS25-W2K" H 10600 7800 50  0001 C CNN
F 3 "" H 10600 7800 50  0000 C CNN
	1    10600 7800
	1    0    0    -1  
$EndComp
$Comp
L +12V #PWR032
U 1 1 5C7EB742
P 10300 7650
F 0 "#PWR032" H 10300 7500 50  0001 C CNN
F 1 "+12V" H 10300 7790 50  0000 C CNN
F 2 "" H 10300 7650 50  0000 C CNN
F 3 "" H 10300 7650 50  0000 C CNN
	1    10300 7650
	1    0    0    -1  
$EndComp
$Comp
L R R6
U 1 1 5C7EB750
P 9250 7300
F 0 "R6" V 9330 7300 50  0000 C CNN
F 1 "220" V 9250 7300 50  0000 C CNN
F 2 "Resistors_ThroughHole:Resistor_Horizontal_RM10mm" V 9180 7300 50  0001 C CNN
F 3 "" H 9250 7300 50  0000 C CNN
	1    9250 7300
	0    1    1    0   
$EndComp
$Comp
L R R21
U 1 1 5C7EB757
P 9500 7550
F 0 "R21" V 9580 7550 50  0000 C CNN
F 1 "100K" V 9500 7550 50  0000 C CNN
F 2 "Resistors_ThroughHole:Resistor_Horizontal_RM10mm" V 9430 7550 50  0001 C CNN
F 3 "" H 9500 7550 50  0000 C CNN
	1    9500 7550
	-1   0    0    1   
$EndComp
$Comp
L GND #PWR033
U 1 1 5C7EB75F
P 9500 7800
F 0 "#PWR033" H 9500 7550 50  0001 C CNN
F 1 "GND" H 9500 7650 50  0000 C CNN
F 2 "" H 9500 7800 50  0000 C CNN
F 3 "" H 9500 7800 50  0000 C CNN
	1    9500 7800
	1    0    0    -1  
$EndComp
$Comp
L GND #PWR034
U 1 1 5C7EB766
P 9900 7600
F 0 "#PWR034" H 9900 7350 50  0001 C CNN
F 1 "GND" H 9900 7450 50  0000 C CNN
F 2 "" H 9900 7600 50  0000 C CNN
F 3 "" H 9900 7600 50  0000 C CNN
	1    9900 7600
	1    0    0    -1  
$EndComp
$Comp
L CONN_01X02 P7
U 1 1 5C7EB76D
P 10600 6850
F 0 "P7" H 10600 7000 50  0000 C CNN
F 1 "LED12" V 10700 6850 50  0000 C CNN
F 2 "myConnectors:NINIGI_NS25-W2K" H 10600 6850 50  0001 C CNN
F 3 "" H 10600 6850 50  0000 C CNN
	1    10600 6850
	1    0    0    -1  
$EndComp
$Comp
L +12V #PWR035
U 1 1 5C7EB775
P 10300 6700
F 0 "#PWR035" H 10300 6550 50  0001 C CNN
F 1 "+12V" H 10300 6840 50  0000 C CNN
F 2 "" H 10300 6700 50  0000 C CNN
F 3 "" H 10300 6700 50  0000 C CNN
	1    10300 6700
	1    0    0    -1  
$EndComp
$Comp
L R R5
U 1 1 5C7EB783
P 9250 6350
F 0 "R5" V 9330 6350 50  0000 C CNN
F 1 "220" V 9250 6350 50  0000 C CNN
F 2 "Resistors_ThroughHole:Resistor_Horizontal_RM10mm" V 9180 6350 50  0001 C CNN
F 3 "" H 9250 6350 50  0000 C CNN
	1    9250 6350
	0    1    1    0   
$EndComp
$Comp
L R R20
U 1 1 5C7EB78A
P 9500 6600
F 0 "R20" V 9580 6600 50  0000 C CNN
F 1 "100K" V 9500 6600 50  0000 C CNN
F 2 "Resistors_ThroughHole:Resistor_Horizontal_RM10mm" V 9430 6600 50  0001 C CNN
F 3 "" H 9500 6600 50  0000 C CNN
	1    9500 6600
	-1   0    0    1   
$EndComp
$Comp
L GND #PWR036
U 1 1 5C7EB792
P 9500 6850
F 0 "#PWR036" H 9500 6600 50  0001 C CNN
F 1 "GND" H 9500 6700 50  0000 C CNN
F 2 "" H 9500 6850 50  0000 C CNN
F 3 "" H 9500 6850 50  0000 C CNN
	1    9500 6850
	1    0    0    -1  
$EndComp
$Comp
L GND #PWR037
U 1 1 5C7EB799
P 9900 6650
F 0 "#PWR037" H 9900 6400 50  0001 C CNN
F 1 "GND" H 9900 6500 50  0000 C CNN
F 2 "" H 9900 6650 50  0000 C CNN
F 3 "" H 9900 6650 50  0000 C CNN
	1    9900 6650
	1    0    0    -1  
$EndComp
$Comp
L +12V #PWR038
U 1 1 5C7EAF45
P 10300 10500
F 0 "#PWR038" H 10300 10350 50  0001 C CNN
F 1 "+12V" H 10300 10640 50  0000 C CNN
F 2 "" H 10300 10500 50  0000 C CNN
F 3 "" H 10300 10500 50  0000 C CNN
	1    10300 10500
	1    0    0    -1  
$EndComp
$Comp
L CONN_01X02 P6
U 1 1 5C7EDC0D
P 10600 5900
F 0 "P6" H 10600 6050 50  0000 C CNN
F 1 "LED13" V 10700 5900 50  0000 C CNN
F 2 "myConnectors:NINIGI_NS25-W2K" H 10600 5900 50  0001 C CNN
F 3 "" H 10600 5900 50  0000 C CNN
	1    10600 5900
	1    0    0    -1  
$EndComp
$Comp
L +12V #PWR039
U 1 1 5C7EDC15
P 10300 5750
F 0 "#PWR039" H 10300 5600 50  0001 C CNN
F 1 "+12V" H 10300 5890 50  0000 C CNN
F 2 "" H 10300 5750 50  0000 C CNN
F 3 "" H 10300 5750 50  0000 C CNN
	1    10300 5750
	1    0    0    -1  
$EndComp
$Comp
L R R4
U 1 1 5C7EDC23
P 9250 5400
F 0 "R4" V 9330 5400 50  0000 C CNN
F 1 "220" V 9250 5400 50  0000 C CNN
F 2 "Resistors_ThroughHole:Resistor_Horizontal_RM10mm" V 9180 5400 50  0001 C CNN
F 3 "" H 9250 5400 50  0000 C CNN
	1    9250 5400
	0    1    1    0   
$EndComp
$Comp
L R R19
U 1 1 5C7EDC2B
P 9500 5650
F 0 "R19" V 9580 5650 50  0000 C CNN
F 1 "100K" V 9500 5650 50  0000 C CNN
F 2 "Resistors_ThroughHole:Resistor_Horizontal_RM10mm" V 9430 5650 50  0001 C CNN
F 3 "" H 9500 5650 50  0000 C CNN
	1    9500 5650
	-1   0    0    1   
$EndComp
$Comp
L GND #PWR040
U 1 1 5C7EDC33
P 9500 5900
F 0 "#PWR040" H 9500 5650 50  0001 C CNN
F 1 "GND" H 9500 5750 50  0000 C CNN
F 2 "" H 9500 5900 50  0000 C CNN
F 3 "" H 9500 5900 50  0000 C CNN
	1    9500 5900
	1    0    0    -1  
$EndComp
$Comp
L GND #PWR041
U 1 1 5C7EDC3A
P 9900 5700
F 0 "#PWR041" H 9900 5450 50  0001 C CNN
F 1 "GND" H 9900 5550 50  0000 C CNN
F 2 "" H 9900 5700 50  0000 C CNN
F 3 "" H 9900 5700 50  0000 C CNN
	1    9900 5700
	1    0    0    -1  
$EndComp
$Comp
L CONN_01X02 P5
U 1 1 5C7EDC41
P 10600 4950
F 0 "P5" H 10600 5100 50  0000 C CNN
F 1 "LED14" V 10700 4950 50  0000 C CNN
F 2 "myConnectors:NINIGI_NS25-W2K" H 10600 4950 50  0001 C CNN
F 3 "" H 10600 4950 50  0000 C CNN
	1    10600 4950
	1    0    0    -1  
$EndComp
$Comp
L +12V #PWR042
U 1 1 5C7EDC49
P 10300 4800
F 0 "#PWR042" H 10300 4650 50  0001 C CNN
F 1 "+12V" H 10300 4940 50  0000 C CNN
F 2 "" H 10300 4800 50  0000 C CNN
F 3 "" H 10300 4800 50  0000 C CNN
	1    10300 4800
	1    0    0    -1  
$EndComp
$Comp
L R R3
U 1 1 5C7EDC57
P 9250 4450
F 0 "R3" V 9330 4450 50  0000 C CNN
F 1 "220" V 9250 4450 50  0000 C CNN
F 2 "Resistors_ThroughHole:Resistor_Horizontal_RM10mm" V 9180 4450 50  0001 C CNN
F 3 "" H 9250 4450 50  0000 C CNN
	1    9250 4450
	0    1    1    0   
$EndComp
$Comp
L R R18
U 1 1 5C7EDC5F
P 9500 4700
F 0 "R18" V 9580 4700 50  0000 C CNN
F 1 "100K" V 9500 4700 50  0000 C CNN
F 2 "Resistors_ThroughHole:Resistor_Horizontal_RM10mm" V 9430 4700 50  0001 C CNN
F 3 "" H 9500 4700 50  0000 C CNN
	1    9500 4700
	-1   0    0    1   
$EndComp
$Comp
L GND #PWR043
U 1 1 5C7EDC67
P 9500 4950
F 0 "#PWR043" H 9500 4700 50  0001 C CNN
F 1 "GND" H 9500 4800 50  0000 C CNN
F 2 "" H 9500 4950 50  0000 C CNN
F 3 "" H 9500 4950 50  0000 C CNN
	1    9500 4950
	1    0    0    -1  
$EndComp
$Comp
L GND #PWR044
U 1 1 5C7EDC6E
P 9900 4750
F 0 "#PWR044" H 9900 4500 50  0001 C CNN
F 1 "GND" H 9900 4600 50  0000 C CNN
F 2 "" H 9900 4750 50  0000 C CNN
F 3 "" H 9900 4750 50  0000 C CNN
	1    9900 4750
	1    0    0    -1  
$EndComp
$Comp
L CONN_01X02 P4
U 1 1 5C7EDC75
P 10600 4000
F 0 "P4" H 10600 4150 50  0000 C CNN
F 1 "LED15" V 10700 4000 50  0000 C CNN
F 2 "myConnectors:NINIGI_NS25-W2K" H 10600 4000 50  0001 C CNN
F 3 "" H 10600 4000 50  0000 C CNN
	1    10600 4000
	1    0    0    -1  
$EndComp
$Comp
L +12V #PWR045
U 1 1 5C7EDC7D
P 10300 3850
F 0 "#PWR045" H 10300 3700 50  0001 C CNN
F 1 "+12V" H 10300 3990 50  0000 C CNN
F 2 "" H 10300 3850 50  0000 C CNN
F 3 "" H 10300 3850 50  0000 C CNN
	1    10300 3850
	1    0    0    -1  
$EndComp
$Comp
L CONN_01X03 P1
U 1 1 5C7F240A
P 5050 9700
F 0 "P1" H 5050 9900 50  0000 C CNN
F 1 "PIR-UP" V 5150 9700 50  0000 C CNN
F 2 "myConnectors:NINIGI_NS25-W3K" H 5050 9700 50  0001 C CNN
F 3 "" H 5050 9700 50  0000 C CNN
	1    5050 9700
	-1   0    0    -1  
$EndComp
$Comp
L CONN_01X03 P2
U 1 1 5C7F26D6
P 5050 10200
F 0 "P2" H 5050 10400 50  0000 C CNN
F 1 "PIR-DOWN" V 5150 10200 50  0000 C CNN
F 2 "myConnectors:NINIGI_NS25-W3K" H 5050 10200 50  0001 C CNN
F 3 "" H 5050 10200 50  0000 C CNN
	1    5050 10200
	-1   0    0    -1  
$EndComp
$Comp
L GND #PWR046
U 1 1 5C7F28B8
P 5350 10400
F 0 "#PWR046" H 5350 10150 50  0001 C CNN
F 1 "GND" H 5350 10250 50  0000 C CNN
F 2 "" H 5350 10400 50  0000 C CNN
F 3 "" H 5350 10400 50  0000 C CNN
	1    5350 10400
	1    0    0    -1  
$EndComp
$Comp
L +5V #PWR047
U 1 1 5C7F2C68
P 5450 9500
F 0 "#PWR047" H 5450 9350 50  0001 C CNN
F 1 "+5V" H 5450 9640 50  0000 C CNN
F 2 "" H 5450 9500 50  0000 C CNN
F 3 "" H 5450 9500 50  0000 C CNN
	1    5450 9500
	1    0    0    -1  
$EndComp
$Comp
L +5V #PWR048
U 1 1 5C7F44A8
P 5000 5900
F 0 "#PWR048" H 5000 5750 50  0001 C CNN
F 1 "+5V" H 5000 6040 50  0000 C CNN
F 2 "" H 5000 5900 50  0000 C CNN
F 3 "" H 5000 5900 50  0000 C CNN
	1    5000 5900
	1    0    0    -1  
$EndComp
$Comp
L +5V #PWR049
U 1 1 5C7F5182
P 6550 11000
F 0 "#PWR049" H 6550 10850 50  0001 C CNN
F 1 "+5V" H 6550 11140 50  0000 C CNN
F 2 "" H 6550 11000 50  0000 C CNN
F 3 "" H 6550 11000 50  0000 C CNN
	1    6550 11000
	1    0    0    -1  
$EndComp
$Comp
L GND #PWR050
U 1 1 5C7F63C1
P 5350 11350
F 0 "#PWR050" H 5350 11100 50  0001 C CNN
F 1 "GND" H 5350 11200 50  0000 C CNN
F 2 "" H 5350 11350 50  0000 C CNN
F 3 "" H 5350 11350 50  0000 C CNN
	1    5350 11350
	1    0    0    -1  
$EndComp
$Comp
L IRF540N Q15
U 1 1 5C802741
P 9800 17700
F 0 "Q15" H 10050 17775 50  0000 L CNN
F 1 "IRLD024" H 10050 17700 50  0000 L CNN
F 2 "myTransistors:IRLD024" H 10050 17625 50  0001 L CIN
F 3 "" H 9800 17700 50  0000 L CNN
	1    9800 17700
	1    0    0    -1  
$EndComp
$Comp
L IRF540N Q14
U 1 1 5C802B64
P 9800 16750
F 0 "Q14" H 10050 16825 50  0000 L CNN
F 1 "IRLD024" H 10050 16750 50  0000 L CNN
F 2 "myTransistors:IRLD024" H 10050 16675 50  0001 L CIN
F 3 "" H 9800 16750 50  0000 L CNN
	1    9800 16750
	1    0    0    -1  
$EndComp
$Comp
L IRF540N Q13
U 1 1 5C802C3B
P 9800 15800
F 0 "Q13" H 10050 15875 50  0000 L CNN
F 1 "IRLD024" H 10050 15800 50  0000 L CNN
F 2 "myTransistors:IRLD024" H 10050 15725 50  0001 L CIN
F 3 "" H 9800 15800 50  0000 L CNN
	1    9800 15800
	1    0    0    -1  
$EndComp
$Comp
L IRF540N Q12
U 1 1 5C802ED5
P 9800 14850
F 0 "Q12" H 10050 14925 50  0000 L CNN
F 1 "IRLD024" H 10050 14850 50  0000 L CNN
F 2 "myTransistors:IRLD024" H 10050 14775 50  0001 L CIN
F 3 "" H 9800 14850 50  0000 L CNN
	1    9800 14850
	1    0    0    -1  
$EndComp
$Comp
L IRF540N Q11
U 1 1 5C802FB2
P 9800 13900
F 0 "Q11" H 10050 13975 50  0000 L CNN
F 1 "IRLD024" H 10050 13900 50  0000 L CNN
F 2 "myTransistors:IRLD024" H 10050 13825 50  0001 L CIN
F 3 "" H 9800 13900 50  0000 L CNN
	1    9800 13900
	1    0    0    -1  
$EndComp
$Comp
L IRF540N Q10
U 1 1 5C80322C
P 9800 12950
F 0 "Q10" H 10050 13025 50  0000 L CNN
F 1 "IRLD024" H 10050 12950 50  0000 L CNN
F 2 "myTransistors:IRLD024" H 10050 12875 50  0001 L CIN
F 3 "" H 9800 12950 50  0000 L CNN
	1    9800 12950
	1    0    0    -1  
$EndComp
$Comp
L IRF540N Q9
U 1 1 5C80330F
P 9800 12000
F 0 "Q9" H 10050 12075 50  0000 L CNN
F 1 "IRLD024" H 10050 12000 50  0000 L CNN
F 2 "myTransistors:IRLD024" H 10050 11925 50  0001 L CIN
F 3 "" H 9800 12000 50  0000 L CNN
	1    9800 12000
	1    0    0    -1  
$EndComp
$Comp
L IRF540N Q8
U 1 1 5C80354D
P 9800 11050
F 0 "Q8" H 10050 11125 50  0000 L CNN
F 1 "IRLD024" H 10050 11050 50  0000 L CNN
F 2 "myTransistors:IRLD024" H 10050 10975 50  0001 L CIN
F 3 "" H 9800 11050 50  0000 L CNN
	1    9800 11050
	1    0    0    -1  
$EndComp
$Comp
L IRF540N Q7
U 1 1 5C80363A
P 9800 10100
F 0 "Q7" H 10050 10175 50  0000 L CNN
F 1 "IRLD024" H 10050 10100 50  0000 L CNN
F 2 "myTransistors:IRLD024" H 10050 10025 50  0001 L CIN
F 3 "" H 9800 10100 50  0000 L CNN
	1    9800 10100
	1    0    0    -1  
$EndComp
$Comp
L IRF540N Q6
U 1 1 5C803726
P 9800 9150
F 0 "Q6" H 10050 9225 50  0000 L CNN
F 1 "IRLD024" H 10050 9150 50  0000 L CNN
F 2 "myTransistors:IRLD024" H 10050 9075 50  0001 L CIN
F 3 "" H 9800 9150 50  0000 L CNN
	1    9800 9150
	1    0    0    -1  
$EndComp
$Comp
L IRF540N Q5
U 1 1 5C803911
P 9800 8200
F 0 "Q5" H 10050 8275 50  0000 L CNN
F 1 "IRLD024" H 10050 8200 50  0000 L CNN
F 2 "myTransistors:IRLD024" H 10050 8125 50  0001 L CIN
F 3 "" H 9800 8200 50  0000 L CNN
	1    9800 8200
	1    0    0    -1  
$EndComp
$Comp
L IRF540N Q4
U 1 1 5C803A03
P 9800 7250
F 0 "Q4" H 10050 7325 50  0000 L CNN
F 1 "IRLD024" H 10050 7250 50  0000 L CNN
F 2 "myTransistors:IRLD024" H 10050 7175 50  0001 L CIN
F 3 "" H 9800 7250 50  0000 L CNN
	1    9800 7250
	1    0    0    -1  
$EndComp
$Comp
L IRF540N Q3
U 1 1 5C803AFC
P 9800 6300
F 0 "Q3" H 10050 6375 50  0000 L CNN
F 1 "IRLD024" H 10050 6300 50  0000 L CNN
F 2 "myTransistors:IRLD024" H 10050 6225 50  0001 L CIN
F 3 "" H 9800 6300 50  0000 L CNN
	1    9800 6300
	1    0    0    -1  
$EndComp
$Comp
L IRF540N Q2
U 1 1 5C803CFE
P 9800 5350
F 0 "Q2" H 10050 5425 50  0000 L CNN
F 1 "IRLD024" H 10050 5350 50  0000 L CNN
F 2 "myTransistors:IRLD024" H 10050 5275 50  0001 L CIN
F 3 "" H 9800 5350 50  0000 L CNN
	1    9800 5350
	1    0    0    -1  
$EndComp
$Comp
L IRF540N Q1
U 1 1 5C803EC2
P 9800 4400
F 0 "Q1" H 10050 4475 50  0000 L CNN
F 1 "IRLD024" H 10050 4400 50  0000 L CNN
F 2 "myTransistors:IRLD024" H 10050 4325 50  0001 L CIN
F 3 "" H 9800 4400 50  0000 L CNN
	1    9800 4400
	1    0    0    -1  
$EndComp
$Comp
L CONN_01X02 P19
U 1 1 5C804795
P 5050 11150
F 0 "P19" H 5050 11300 50  0000 C CNN
F 1 "12V" V 5150 11150 50  0000 C CNN
F 2 "myConnectors:NINIGI_NS25-W2K" H 5050 11150 50  0001 C CNN
F 3 "" H 5050 11150 50  0000 C CNN
	1    5050 11150
	-1   0    0    -1  
$EndComp
$Comp
L C C1
U 1 1 5C81404C
P 5000 6350
F 0 "C1" H 5025 6450 50  0000 L CNN
F 1 "100nF" H 4750 6250 50  0000 L CNN
F 2 "Capacitors_ThroughHole:C_Rect_L7_W2.5_P5" H 5038 6200 50  0001 C CNN
F 3 "" H 5000 6350 50  0000 C CNN
	1    5000 6350
	1    0    0    -1  
$EndComp
$Comp
L GND #PWR051
U 1 1 5C81427D
P 5000 7000
F 0 "#PWR051" H 5000 6750 50  0001 C CNN
F 1 "GND" H 5000 6850 50  0000 C CNN
F 2 "" H 5000 7000 50  0000 C CNN
F 3 "" H 5000 7000 50  0000 C CNN
	1    5000 7000
	1    0    0    -1  
$EndComp
$Comp
L NRF24L01 U2
U 1 1 5CE2D28A
P 5300 4100
F 0 "U2" H 5300 4100 60  0000 C CNN
F 1 "NRF24L01" H 5325 4800 60  0000 C CNN
F 2 "myModules:NRF24L01" H 5300 4100 60  0001 C CNN
F 3 "" H 5300 4100 60  0000 C CNN
	1    5300 4100
	1    0    0    -1  
$EndComp
$Comp
L GND #PWR052
U 1 1 5CE2DB41
P 4500 3700
F 0 "#PWR052" H 4500 3450 50  0001 C CNN
F 1 "GND" H 4500 3550 50  0000 C CNN
F 2 "" H 4500 3700 50  0000 C CNN
F 3 "" H 4500 3700 50  0000 C CNN
	1    4500 3700
	1    0    0    -1  
$EndComp
$Comp
L +3.3V #PWR053
U 1 1 5CE2E080
P 6000 3400
F 0 "#PWR053" H 6000 3250 50  0001 C CNN
F 1 "+3.3V" H 6000 3540 50  0000 C CNN
F 2 "" H 6000 3400 50  0000 C CNN
F 3 "" H 6000 3400 50  0000 C CNN
	1    6000 3400
	1    0    0    -1  
$EndComp
$Comp
L C C3
U 1 1 5CE2E37B
P 6200 3850
F 0 "C3" H 6225 3950 50  0000 L CNN
F 1 "100nF" H 6300 3700 50  0000 L CNN
F 2 "Capacitors_ThroughHole:C_Rect_L7_W2.5_P5" H 6238 3700 50  0001 C CNN
F 3 "" H 6200 3850 50  0000 C CNN
	1    6200 3850
	1    0    0    -1  
$EndComp
$Comp
L GND #PWR054
U 1 1 5CE2E724
P 6200 4100
F 0 "#PWR054" H 6200 3850 50  0001 C CNN
F 1 "GND" H 6200 3950 50  0000 C CNN
F 2 "" H 6200 4100 50  0000 C CNN
F 3 "" H 6200 4100 50  0000 C CNN
	1    6200 4100
	1    0    0    -1  
$EndComp
$Comp
L +12V #PWR055
U 1 1 5D407AAB
P 5350 11000
F 0 "#PWR055" H 5350 10850 50  0001 C CNN
F 1 "+12V" H 5350 11140 50  0000 C CNN
F 2 "" H 5350 11000 50  0000 C CNN
F 3 "" H 5350 11000 50  0000 C CNN
	1    5350 11000
	1    0    0    -1  
$EndComp
$Comp
L GND #PWR056
U 1 1 5D407E6D
P 6050 11500
F 0 "#PWR056" H 6050 11250 50  0001 C CNN
F 1 "GND" H 6050 11350 50  0000 C CNN
F 2 "" H 6050 11500 50  0000 C CNN
F 3 "" H 6050 11500 50  0000 C CNN
	1    6050 11500
	1    0    0    -1  
$EndComp
$Comp
L C C4
U 1 1 5D4087B0
P 5550 11350
F 0 "C4" H 5575 11450 50  0000 L CNN
F 1 "470nF" H 5600 11250 50  0000 L CNN
F 2 "Capacitors_ThroughHole:C_Rect_L7_W2.5_P5" H 5588 11200 50  0001 C CNN
F 3 "" H 5550 11350 50  0000 C CNN
	1    5550 11350
	1    0    0    -1  
$EndComp
$Comp
L GND #PWR057
U 1 1 5D40937A
P 5550 11600
F 0 "#PWR057" H 5550 11350 50  0001 C CNN
F 1 "GND" H 5550 11450 50  0000 C CNN
F 2 "" H 5550 11600 50  0000 C CNN
F 3 "" H 5550 11600 50  0000 C CNN
	1    5550 11600
	1    0    0    -1  
$EndComp
$Comp
L LF50CV U1
U 1 1 5D415D29
P 6050 11150
F 0 "U1" H 5850 11350 50  0000 C CNN
F 1 "LF50CV" H 6050 11350 50  0000 L CNN
F 2 "TO_SOT_Packages_THT:TO-220_Neutral123_Vertical_LargePads" H 6050 11250 50  0001 C CIN
F 3 "" H 6050 11150 50  0000 C CNN
	1    6050 11150
	1    0    0    -1  
$EndComp
$Comp
L INHAOS-mega-core U3
U 1 1 5D41B0E6
P 7900 5800
F 0 "U3" H 9200 4675 60  0000 C CNN
F 1 "INHAOS-mega-core" H 9150 4575 60  0000 C CNN
F 2 "myMicroControllers:ARDUINO-MEGA-INHAOS-CORE" H 7900 5800 60  0001 C CNN
F 3 "" H 7900 5800 60  0000 C CNN
	1    7900 5800
	-1   0    0    -1  
$EndComp
$Comp
L MCP1702 U4
U 1 1 5D4222BA
P 7050 11150
F 0 "U4" H 6850 11350 50  0000 C CNN
F 1 "MCP1702" H 7050 11350 50  0000 L CNN
F 2 "TO_SOT_Packages_THT:TO-92_Inline_Wide" H 7050 11250 50  0001 C CIN
F 3 "" H 7050 11150 50  0000 C CNN
	1    7050 11150
	1    0    0    -1  
$EndComp
$Comp
L +3.3V #PWR058
U 1 1 5D422C5E
P 7550 11000
F 0 "#PWR058" H 7550 10850 50  0001 C CNN
F 1 "+3.3V" H 7550 11140 50  0000 C CNN
F 2 "" H 7550 11000 50  0000 C CNN
F 3 "" H 7550 11000 50  0000 C CNN
	1    7550 11000
	1    0    0    -1  
$EndComp
$Comp
L C C2
U 1 1 5D422E87
P 6550 11350
F 0 "C2" H 6575 11450 50  0000 L CNN
F 1 "1µF" H 6600 11250 50  0000 L CNN
F 2 "Capacitors_ThroughHole:C_Rect_L7_W2_P5" H 6588 11200 50  0001 C CNN
F 3 "" H 6550 11350 50  0000 C CNN
	1    6550 11350
	1    0    0    -1  
$EndComp
$Comp
L GND #PWR059
U 1 1 5D42365E
P 6550 11600
F 0 "#PWR059" H 6550 11350 50  0001 C CNN
F 1 "GND" H 6550 11450 50  0000 C CNN
F 2 "" H 6550 11600 50  0000 C CNN
F 3 "" H 6550 11600 50  0000 C CNN
	1    6550 11600
	1    0    0    -1  
$EndComp
$Comp
L C C5
U 1 1 5D423B93
P 7550 11350
F 0 "C5" H 7575 11450 50  0000 L CNN
F 1 "1µF" H 7600 11250 50  0000 L CNN
F 2 "Capacitors_ThroughHole:C_Rect_L7_W2_P5" H 7588 11200 50  0001 C CNN
F 3 "" H 7550 11350 50  0000 C CNN
	1    7550 11350
	1    0    0    -1  
$EndComp
$Comp
L GND #PWR060
U 1 1 5D42400E
P 7550 11600
F 0 "#PWR060" H 7550 11350 50  0001 C CNN
F 1 "GND" H 7550 11450 50  0000 C CNN
F 2 "" H 7550 11600 50  0000 C CNN
F 3 "" H 7550 11600 50  0000 C CNN
	1    7550 11600
	1    0    0    -1  
$EndComp
$Comp
L GND #PWR061
U 1 1 5D424239
P 7050 11500
F 0 "#PWR061" H 7050 11250 50  0001 C CNN
F 1 "GND" H 7050 11350 50  0000 C CNN
F 2 "" H 7050 11500 50  0000 C CNN
F 3 "" H 7050 11500 50  0000 C CNN
	1    7050 11500
	1    0    0    -1  
$EndComp
Wire Wire Line
	8100 7000 8250 7000
Wire Wire Line
	9400 17750 9600 17750
Wire Wire Line
	9500 17750 9500 17850
Connection ~ 9500 17750
Wire Wire Line
	9500 18250 9500 18150
Wire Wire Line
	9900 18050 9900 17900
Wire Wire Line
	10400 17350 9900 17350
Wire Wire Line
	9900 17350 9900 17500
Wire Wire Line
	10300 17150 10300 17250
Wire Wire Line
	10300 17250 10400 17250
Wire Wire Line
	9400 16800 9600 16800
Wire Wire Line
	9500 16800 9500 16900
Connection ~ 9500 16800
Wire Wire Line
	9500 17300 9500 17200
Wire Wire Line
	9900 17100 9900 16950
Wire Wire Line
	10400 16400 9900 16400
Wire Wire Line
	9900 16400 9900 16550
Wire Wire Line
	10300 16200 10300 16300
Wire Wire Line
	10300 16300 10400 16300
Wire Wire Line
	9400 15850 9600 15850
Wire Wire Line
	9500 15850 9500 15950
Connection ~ 9500 15850
Wire Wire Line
	9500 16350 9500 16250
Wire Wire Line
	9900 16150 9900 16000
Wire Wire Line
	10400 15450 9900 15450
Wire Wire Line
	9900 15450 9900 15600
Wire Wire Line
	10300 15250 10300 15350
Wire Wire Line
	10300 15350 10400 15350
Wire Wire Line
	9400 14900 9600 14900
Wire Wire Line
	9500 14900 9500 15000
Connection ~ 9500 14900
Wire Wire Line
	9500 15400 9500 15300
Wire Wire Line
	9900 15200 9900 15050
Wire Wire Line
	10400 14500 9900 14500
Wire Wire Line
	9900 14500 9900 14650
Wire Wire Line
	10300 14300 10300 14400
Wire Wire Line
	10300 14400 10400 14400
Wire Wire Line
	9400 13950 9600 13950
Wire Wire Line
	9500 13950 9500 14050
Connection ~ 9500 13950
Wire Wire Line
	9500 14450 9500 14350
Wire Wire Line
	9900 14250 9900 14100
Wire Wire Line
	10400 13550 9900 13550
Wire Wire Line
	9900 13550 9900 13700
Wire Wire Line
	10300 13350 10300 13450
Wire Wire Line
	10300 13450 10400 13450
Wire Wire Line
	9400 13000 9600 13000
Wire Wire Line
	9500 13000 9500 13100
Connection ~ 9500 13000
Wire Wire Line
	9500 13500 9500 13400
Wire Wire Line
	9900 13300 9900 13150
Wire Wire Line
	10400 12600 9900 12600
Wire Wire Line
	9900 12600 9900 12750
Wire Wire Line
	10300 12400 10300 12500
Wire Wire Line
	10300 12500 10400 12500
Wire Wire Line
	9400 12050 9600 12050
Wire Wire Line
	9500 12050 9500 12150
Connection ~ 9500 12050
Wire Wire Line
	9500 12550 9500 12450
Wire Wire Line
	9900 12350 9900 12200
Wire Wire Line
	10400 11650 9900 11650
Wire Wire Line
	9900 11650 9900 11800
Wire Wire Line
	10300 11450 10300 11550
Wire Wire Line
	10300 11550 10400 11550
Wire Wire Line
	9400 11100 9600 11100
Wire Wire Line
	9500 11100 9500 11200
Connection ~ 9500 11100
Wire Wire Line
	9500 11600 9500 11500
Wire Wire Line
	9900 11400 9900 11250
Wire Wire Line
	10400 10700 9900 10700
Wire Wire Line
	10300 10500 10300 10600
Wire Wire Line
	10300 10600 10400 10600
Wire Wire Line
	9400 10150 9600 10150
Wire Wire Line
	9500 10150 9500 10250
Connection ~ 9500 10150
Wire Wire Line
	9500 10650 9500 10550
Wire Wire Line
	9900 10450 9900 10300
Wire Wire Line
	10400 9750 9900 9750
Wire Wire Line
	9900 9750 9900 9900
Wire Wire Line
	10300 9550 10300 9650
Wire Wire Line
	10300 9650 10400 9650
Wire Wire Line
	9400 9200 9600 9200
Wire Wire Line
	9500 9200 9500 9300
Connection ~ 9500 9200
Wire Wire Line
	9500 9700 9500 9600
Wire Wire Line
	9900 9500 9900 9350
Wire Wire Line
	10400 8800 9900 8800
Wire Wire Line
	9900 8800 9900 8950
Wire Wire Line
	10300 8600 10300 8700
Wire Wire Line
	10300 8700 10400 8700
Wire Wire Line
	9400 8250 9600 8250
Wire Wire Line
	9500 8250 9500 8350
Connection ~ 9500 8250
Wire Wire Line
	9500 8750 9500 8650
Wire Wire Line
	9900 8550 9900 8400
Wire Wire Line
	10400 7850 9900 7850
Wire Wire Line
	9900 7850 9900 8000
Wire Wire Line
	10300 7650 10300 7750
Wire Wire Line
	10300 7750 10400 7750
Wire Wire Line
	9400 7300 9600 7300
Wire Wire Line
	9500 7300 9500 7400
Connection ~ 9500 7300
Wire Wire Line
	9500 7800 9500 7700
Wire Wire Line
	9900 7600 9900 7450
Wire Wire Line
	10400 6900 9900 6900
Wire Wire Line
	9900 6900 9900 7050
Wire Wire Line
	10300 6700 10300 6800
Wire Wire Line
	10300 6800 10400 6800
Wire Wire Line
	9400 6350 9600 6350
Wire Wire Line
	9500 6350 9500 6450
Connection ~ 9500 6350
Wire Wire Line
	9500 6850 9500 6750
Wire Wire Line
	9900 6650 9900 6500
Wire Wire Line
	10400 5950 9900 5950
Wire Wire Line
	9900 5950 9900 6100
Wire Wire Line
	10300 5750 10300 5850
Wire Wire Line
	10300 5850 10400 5850
Wire Wire Line
	9400 5400 9600 5400
Wire Wire Line
	9500 5400 9500 5500
Connection ~ 9500 5400
Wire Wire Line
	9500 5900 9500 5800
Wire Wire Line
	9900 5700 9900 5550
Wire Wire Line
	10400 5000 9900 5000
Wire Wire Line
	9900 5000 9900 5150
Wire Wire Line
	10300 4800 10300 4900
Wire Wire Line
	10300 4900 10400 4900
Wire Wire Line
	9400 4450 9600 4450
Wire Wire Line
	9500 4450 9500 4550
Connection ~ 9500 4450
Wire Wire Line
	9500 4950 9500 4850
Wire Wire Line
	9900 4750 9900 4600
Wire Wire Line
	10400 4050 9900 4050
Wire Wire Line
	9900 4050 9900 4200
Wire Wire Line
	10300 3850 10300 3950
Wire Wire Line
	10300 3950 10400 3950
Wire Wire Line
	8250 7000 8250 17750
Wire Wire Line
	8250 17750 9100 17750
Wire Wire Line
	8100 6900 8300 6900
Wire Wire Line
	8300 6900 8300 16800
Wire Wire Line
	8300 16800 9100 16800
Wire Wire Line
	9100 15850 8350 15850
Wire Wire Line
	8350 15850 8350 6800
Wire Wire Line
	8350 6800 8100 6800
Wire Wire Line
	8100 6700 8400 6700
Wire Wire Line
	8400 6700 8400 14900
Wire Wire Line
	8400 14900 9100 14900
Wire Wire Line
	9100 13950 8450 13950
Wire Wire Line
	8450 13950 8450 6600
Wire Wire Line
	8450 6600 8100 6600
Wire Wire Line
	8100 6500 8500 6500
Wire Wire Line
	8500 6500 8500 13000
Wire Wire Line
	8500 13000 9100 13000
Wire Wire Line
	9100 12050 8550 12050
Wire Wire Line
	8550 12050 8550 6400
Wire Wire Line
	8550 6400 8100 6400
Wire Wire Line
	8100 6300 8600 6300
Wire Wire Line
	8600 6300 8600 11100
Wire Wire Line
	8600 11100 9100 11100
Wire Wire Line
	9100 10150 8650 10150
Wire Wire Line
	8650 10150 8650 6200
Wire Wire Line
	8650 6200 8100 6200
Wire Wire Line
	9100 9200 8700 9200
Wire Wire Line
	8700 9200 8700 6100
Wire Wire Line
	8700 6100 8100 6100
Wire Wire Line
	8100 6000 8750 6000
Wire Wire Line
	8750 6000 8750 8250
Wire Wire Line
	8750 8250 9100 8250
Wire Wire Line
	9100 7300 8800 7300
Wire Wire Line
	8800 7300 8800 5900
Wire Wire Line
	8800 5900 8100 5900
Wire Wire Line
	9100 6350 8850 6350
Wire Wire Line
	8850 6350 8850 5000
Wire Wire Line
	8850 5000 6700 5000
Wire Wire Line
	6700 5000 6700 5500
Wire Wire Line
	8900 5400 9100 5400
Wire Wire Line
	8900 5400 8900 4950
Wire Wire Line
	8900 4950 6600 4950
Wire Wire Line
	6600 4950 6600 5500
Wire Wire Line
	9100 4450 6500 4450
Wire Wire Line
	6500 4450 6500 5500
Wire Wire Line
	5350 9800 5350 10400
Wire Wire Line
	5350 9800 5250 9800
Wire Wire Line
	5250 10300 5350 10300
Connection ~ 5350 10300
Wire Wire Line
	5450 9500 5450 10100
Wire Wire Line
	5450 9600 5250 9600
Connection ~ 5450 9600
Wire Wire Line
	5250 10200 8200 10200
Wire Wire Line
	5250 9700 8150 9700
Wire Wire Line
	5000 5900 5000 6200
Wire Wire Line
	6450 11100 6650 11100
Wire Wire Line
	5350 11350 5350 11200
Wire Wire Line
	9900 10700 9900 10850
Connection ~ 6550 11100
Connection ~ 5000 6100
Wire Wire Line
	5000 6500 5000 7000
Wire Wire Line
	8200 10200 8200 7900
Wire Wire Line
	8200 7900 8100 7900
Wire Wire Line
	8150 9700 8150 8000
Wire Wire Line
	5800 3850 6000 3850
Wire Wire Line
	6000 3850 6000 5500
Wire Wire Line
	4850 4000 4750 4000
Wire Wire Line
	4750 4000 4750 4300
Wire Wire Line
	4750 4300 6100 4300
Wire Wire Line
	6100 4300 6100 5500
Wire Wire Line
	4850 3850 4700 3850
Wire Wire Line
	4700 3850 4700 4400
Wire Wire Line
	4700 4400 5900 4400
Wire Wire Line
	5900 4400 5900 5500
Wire Wire Line
	4500 3700 4500 3550
Wire Wire Line
	4500 3550 4850 3550
Wire Wire Line
	5800 3550 6200 3550
Wire Wire Line
	6000 3550 6000 3400
Wire Wire Line
	6200 3550 6200 3700
Connection ~ 6000 3550
Wire Wire Line
	6200 4100 6200 4000
Wire Wire Line
	5800 3700 5900 3700
Wire Wire Line
	5900 3700 5900 4200
Wire Wire Line
	5900 4200 5800 4200
Wire Wire Line
	5800 4200 5800 5500
Wire Wire Line
	4850 3700 4650 3700
Wire Wire Line
	4650 3700 4650 4500
Wire Wire Line
	4650 4500 6200 4500
Wire Wire Line
	6200 4500 6200 5500
Wire Wire Line
	5550 11100 5550 11200
Wire Wire Line
	6050 11500 6050 11400
Connection ~ 5550 11100
Wire Wire Line
	5550 11600 5550 11500
Wire Wire Line
	5350 11200 5250 11200
Wire Wire Line
	5350 11000 5350 11100
Connection ~ 5350 11100
Wire Wire Line
	5250 11100 5650 11100
Wire Wire Line
	5450 10100 5250 10100
Wire Wire Line
	8150 8000 8100 8000
Wire Wire Line
	5000 6100 5200 6100
Wire Wire Line
	5000 6900 5200 6900
Connection ~ 5000 6900
Wire Wire Line
	6550 11000 6550 11200
Wire Wire Line
	6550 11600 6550 11500
Wire Wire Line
	7550 11000 7550 11200
Wire Wire Line
	7550 11100 7450 11100
Connection ~ 7550 11100
Wire Wire Line
	7550 11600 7550 11500
Wire Wire Line
	7050 11500 7050 11400
$EndSCHEMATC
